
[
    {
        "name" : "Speed",
        "interact_method" : 0,
        "duration"        : 5.0,
        "tick_interval"   : 1.0,
        "use_ticks"       : false,
        "use_prefab"      : true,
        "modifies_speed"  : false,
        "modifies_health" : false,
        "modifies_equipmentslot" : false,
        "custom_texture"         : "",
        "custom_object"          : "",
        "prefab_object"          : "prefab",
        "speed_procentage"       : 100,
        "buff"                   : {
            "name" : "",
            "value" : 0,
            "toggle" : false
        }
    },
    {
        "name" : "New Buff",
        "interact_method" : 1,
        "duration"        : 0.0,
        "tick_interval"   : 1.0,
        "use_ticks"       : false,
        "use_prefab"      : true,
        "modifies_speed"  : false,
        "modifies_health" : false,
        "modifies_equipmentslot" : false,
        "custom_texture"         : "",
        "custom_object"          : "",
        "prefab_object"          : "",
        "speed_procentage"       : 100,
        "buff"                   : {
            "name" : "",
            "value" : 0,
            "toggle" : false
        }
    }
]