# 3ds Max Wavefront OBJ Exporter v0.97b - (c)2007 guruware
# File Created: 13.11.2016 14:06:05

#
# object treeSection1_tree2_low
#

v  2.9626 21.3108 3.5259
v  3.5513 21.0283 3.8829
v  3.6547 20.9648 3.8689
v  3.0946 21.2153 3.0276
v  3.6523 20.9246 3.7539
v  3.2639 20.9510 2.9373
v  3.0822 21.1766 2.4287
v  2.6542 21.3126 2.5549
v  2.3180 21.3511 2.8501
v  1.5879 21.1480 2.6465
v  1.8883 21.0800 3.1885
v  2.3848 21.3119 3.3131
v  1.7682 21.5467 1.8100
v  1.3002 21.5108 1.9607
v  2.1847 21.5905 1.6101
v  0.6002 21.7239 1.9497
v  0.5753 21.3182 2.5275
v  1.4642 20.8362 2.7829
v  0.5604 20.9867 3.0982
v  1.4359 20.3075 3.4468
v  -0.0791 21.7507 2.2836
v  -0.0903 21.6149 2.7985
v  -0.0182 21.9830 1.6553
v  -0.2179 22.1158 1.3246
v  -1.0424 21.8795 2.3503
v  -0.6232 21.6973 2.6546
v  -1.8043 21.9101 3.2766
v  -1.0746 21.6901 3.1987
v  -1.5313 22.1457 2.3132
v  -2.4342 22.1276 3.3376
v  -0.5907 22.4981 1.1756
v  -1.5326 21.9527 1.9656
v  -2.3427 21.9401 2.9056
v  -0.6524 22.3989 0.7863
v  -1.0385 22.4830 0.2086
v  -2.3499 22.0198 0.4593
v  -1.8292 21.8748 1.2997
v  -3.7033 22.1182 0.6226
v  -2.8994 21.8242 1.3920
v  -3.2618 22.0879 -0.3515
v  -4.3974 22.5684 -0.0712
v  -1.4092 22.4888 -0.4576
v  -4.1969 22.3197 -0.3563
v  -3.3186 22.0118 -0.5791
v  -0.9866 22.3131 -1.2412
v  -2.8937 21.8328 -1.4943
v  -2.5823 21.7042 -2.1061
v  -0.8118 21.9828 -2.0004
v  -1.9955 21.7067 -2.2813
v  -0.1479 21.6188 -3.4452
v  -0.9606 21.2492 -4.2029
v  -1.4549 21.7837 -2.7049
v  -1.7362 21.1138 -4.6179
v  -2.1265 21.8185 -3.4305
v  1.4279 21.2208 -3.3845
v  1.0107 20.8640 -4.2832
v  -0.8026 21.0947 -4.2992
v  0.4378 20.6046 -4.9629
v  -1.2282 20.8578 -5.1236
v  2.3650 21.0151 -2.4669
v  2.0461 20.6207 -3.5035
v  1.3445 20.9575 -3.8994
v  1.5540 20.4966 -4.3933
v  1.2138 20.7649 -4.3997
v  1.1664 20.5140 -5.0486
v  1.1182 20.5731 -5.0316
v  2.8741 21.1172 -1.0924
v  3.7414 20.3981 -1.3470
v  3.1316 20.4811 -2.8947
v  3.3666 20.7871 0.1547
v  4.1419 20.5817 0.0542
v  4.6962 20.5606 -0.1351
v  4.5384 20.1659 -1.7017
v  3.8183 20.6600 -3.9508
v  2.7655 21.7481 -0.2300
v  3.6139 20.9840 0.1835
v  2.3778 21.7749 0.7446
v  3.0959 21.0973 1.3127
v  3.7147 21.0072 2.5471
v  3.9473 20.6070 1.4832
v  5.6643 20.5020 1.8345
v  5.8798 20.5108 1.5717
v  5.7411 20.4758 1.3186
v  4.4187 20.5653 0.6390
v  2.4690 21.7158 -0.9504
v  2.2560 21.8030 -1.6320
v  1.7217 22.2229 -2.2444
v  0.4140 22.4623 -2.4141
v  -0.2153 22.7073 -1.5626
v  -0.4684 22.8369 -0.9750
v  -0.7272 22.9863 -0.4355
v  -0.3892 22.9920 0.0180
v  -0.1932 23.1755 0.4213
v  -0.0602 22.9614 0.6242
v  0.3361 22.8669 0.9226
v  0.4928 22.7311 1.1141
v  0.8259 22.6374 1.1128
v  1.2219 22.4103 1.1529
v  1.7554 22.1881 0.9638
v  1.9539 23.0591 -0.3575
v  1.5699 23.2590 0.0396
v  1.8420 23.0302 -0.8058
v  1.6873 23.2593 -1.5686
v  0.7221 23.3531 -1.8060
v  0.1609 23.5831 -1.3716
v  -0.0190 23.5595 -0.7968
v  -0.1588 23.7156 -0.3254
v  0.1163 23.8584 0.1583
v  0.7192 23.8172 0.4848
v  1.1876 23.5693 0.3030
v  0.9904 25.2956 0.1879
v  1.2560 25.2192 -0.2794
v  1.3511 25.1707 -0.4884
v  0.7327 25.2257 -0.8784
v  0.3165 25.2043 -0.6208
v  0.4257 25.2660 -0.1444
v  0.5043 26.9932 -0.5230
v  0.9481 26.9271 -0.4677
v  0.2291 29.0741 -0.3021
v  0.5211 29.0131 -0.1863
v  0.8795 27.0317 -0.0048
v  0.5118 29.0502 -0.0873
v  0.4544 26.9857 -0.1522
v  0.2257 29.0911 -0.1339
v  2.5202 17.9412 3.0355
v  2.9739 18.3581 2.3712
v  1.9563 18.2291 2.6753
v  1.2785 18.2202 2.8403
v  2.4029 17.4874 3.8122
v  1.0891 19.2686 2.1267
v  1.3174 18.5363 3.1481
v  1.1221 19.1057 1.9862
v  -0.4294 19.8190 2.1497
v  -0.4687 19.3133 2.7906
v  -0.3543 18.9198 3.6363
v  1.4681 18.0557 4.3369
v  -0.6237 20.3797 1.2223
v  -0.4566 19.2573 2.0545
v  -0.1860 20.6714 1.4453
v  -1.3359 19.4860 1.9205
v  -1.4160 18.9219 2.0813
v  -0.6013 18.8483 2.1267
v  -2.1136 18.6464 2.1095
v  -1.8248 19.4962 1.6841
v  -1.0659 20.4247 0.9104
v  -0.7719 21.0369 0.3570
v  -1.8857 19.9855 0.5636
v  -1.9018 19.9602 1.2219
v  -2.5771 19.6031 0.7427
v  -2.3866 19.4123 1.5611
v  4.8405 18.9569 2.0347
v  4.3400 18.7538 2.4069
v  4.8338 18.6684 2.7379
v  5.2268 18.9255 2.5240
v  3.8638 18.5621 2.8303
v  3.7933 18.8142 2.0175
v  3.9719 18.8216 1.2672
v  4.3847 18.5030 2.9136
v  4.9547 19.2722 0.8666
v  4.0550 19.2396 0.1608
v  4.8725 19.0300 1.1469
v  5.1143 19.0539 0.2944
v  6.0683 18.6827 -0.9470
v  4.7069 19.0586 -1.0006
v  5.8173 18.4807 -0.9838
v  4.6000 19.0120 -1.0791
v  5.2999 18.4292 -1.5078
v  4.0537 19.2759 -1.4974
v  4.9478 18.6176 -2.1225
v  3.2932 19.4522 -2.1291
v  3.8353 19.1614 -2.4896
v  3.6323 18.9697 -3.0690
v  2.9516 19.3148 -2.8664
v  4.1687 18.6778 -2.8306
v  4.2373 19.0032 -2.5346
v  4.4481 18.9884 -2.5239
v  4.5169 18.7395 -2.5697
v  2.3647 19.0810 -3.4448
v  3.5565 18.8625 -3.3663
v  3.0062 18.5944 -3.7372
v  2.8452 18.5456 -3.9307
v  2.7787 18.4820 -4.1548
v  1.9590 18.9745 -3.9708
v  1.3868 19.4599 -3.6344
v  1.8455 19.5451 -3.0626
v  2.2403 19.6933 -2.5807
v  0.8872 20.1083 -3.0246
v  1.4684 20.1177 -2.6558
v  1.8530 20.2821 -2.2340
v  2.4247 20.1130 -1.8688
v  1.0938 19.4467 -3.6562
v  0.2308 18.7195 -3.8818
v  0.2766 19.7872 -3.1451
v  1.3554 19.0369 -3.8934
v  1.8801 18.6144 -4.2665
v  1.3111 18.2352 -4.6101
v  0.6930 18.5423 -4.3480
v  2.9969 17.9192 -4.8416
v  3.0048 17.9106 -4.7253
v  0.1365 18.3789 -4.9828
v  -0.4656 19.1648 -4.4285
v  -0.8321 19.8011 -3.2326
v  -0.4728 20.6799 -2.4177
v  -1.6996 19.4931 -2.8010
v  -1.1089 20.1217 -1.7661
v  -2.0681 19.2402 -1.9689
v  -2.6939 19.5365 -1.4148
v  -1.6246 20.2599 -1.2721
v  -2.8296 19.0704 -2.7521
v  -2.8902 19.0461 -2.2176
v  -3.4889 19.2738 -1.5270
v  -3.4394 19.1128 -2.6240
v  -3.4993 19.1120 -2.3228
v  -3.3727 19.0539 -2.9384
v  -3.9098 19.0430 -3.1110
v  -4.1212 20.0223 -1.6474
v  -2.9265 19.9763 -1.3737
v  -1.9536 20.4639 -1.1812
v  -2.4995 19.6151 -0.6873
v  -4.1226 19.2974 -1.0858
v  -3.7028 19.2339 -0.3306
v  -2.6140 19.6286 -0.0004
v  -3.4527 18.7496 1.2867
v  -3.2851 17.6698 2.3823
v  -1.6937 20.1378 -0.6630
v  -1.9609 20.1288 0.0035
v  0.9385 20.3862 1.3622
v  1.5892 19.0145 1.7910
v  2.2734 19.1492 1.8796
v  2.9382 19.3638 1.3788
v  3.3520 19.5926 0.9748
v  1.4853 20.5351 1.0863
v  2.1579 20.7206 0.5569
v  3.6941 19.7840 0.0703
v  3.8425 19.7205 -1.0595
v  3.3037 19.7610 -1.3359
v  0.3165 20.7883 -2.6169
v  0.8929 20.7266 -2.6137
v  1.2865 20.5295 -2.4137
v  -0.6901 21.2076 -0.0838
v  -0.7456 21.3296 -0.5997
v  -1.0642 21.3940 -0.9605
v  -0.4045 21.4515 -1.3655
v  -0.1605 21.6975 -1.8570
v  2.3287 20.9182 -0.1434
v  2.5111 20.8689 -0.8625
v  1.8041 21.2708 -1.3086
v  1.4911 21.5096 -1.6111
v  1.0368 21.6287 -1.8006
v  0.5397 21.6241 -2.0941
v  -3.0094 19.0146 0.0342
v  -0.0339 22.9435 -0.0521
v  0.1740 22.9420 0.2927
v  0.2050 22.8412 0.5515
v  0.6334 22.7217 0.5367
v  1.1638 22.7225 0.5456
v  1.6677 22.6357 0.2002
v  1.5390 22.5950 -0.1873
v  1.6066 22.6277 -0.5332
v  1.3864 22.8509 -1.0692
v  0.7600 23.0162 -1.3285
v  0.1698 23.1072 -1.2535
v  -0.0388 23.1413 -0.8280
v  -0.1926 23.1563 -0.5534
v  -0.9370 15.3074 -0.0379
v  -0.8215 16.0498 0.1454
v  -1.5266 15.6636 0.0642
v  -1.4541 15.2583 -0.1200
v  -1.3309 16.5698 -0.2274
v  -1.7479 16.0653 -0.1623
v  -1.7811 15.7747 -0.4210
v  -2.0585 15.1037 -0.2775
v  -2.0421 15.1225 -0.0862
v  -1.3368 16.3566 -0.5658
v  -0.8065 15.9536 -0.7994
v  -1.6420 15.4520 -0.5296
v  -1.9570 14.9595 -0.4066
v  -1.5080 15.2466 -0.3445
v  -0.9858 15.2702 -0.4646
v  -2.3139 14.3410 -0.2663
v  -2.3789 14.4364 -0.1577
v  -2.8469 13.9546 -0.2320
v  -2.8467 14.1187 -0.1545
v  -3.3499 14.2132 -0.3659
v  -3.3251 14.3264 -0.3336
v  -3.9407 14.4652 -0.5846
v  -3.9097 14.6195 -0.5759
v  -4.4303 14.5327 -0.6885
v  -4.4035 14.6730 -0.6712
v  -4.9383 14.4707 -0.6683
v  -4.9340 14.5568 -0.6626
v  -5.1107 14.4432 -0.5780
v  -1.7899 14.7868 -0.3070
v  -2.1884 14.1981 -0.2275
v  -2.7805 13.8005 -0.1690
v  -3.3675 14.0927 -0.2923
v  -3.9700 14.3374 -0.5245
v  -4.4620 14.4647 -0.6061
v  -4.9497 14.4254 -0.6185
v  -2.4022 14.3894 -0.0006
v  -2.8612 14.1128 0.0124
v  -3.3479 14.3048 -0.2064
v  -3.9408 14.6107 -0.4686
v  -4.4253 14.6481 -0.5632
v  -4.9363 14.5365 -0.5809
v  -1.9046 14.9461 -0.0419
v  -2.2919 14.3076 0.0079
v  -2.8194 13.9392 0.0256
v  -3.3863 14.1758 -0.0967
v  -3.9660 14.4844 -0.4138
v  -4.4544 14.5535 -0.5203
v  -4.9469 14.4796 -0.5521
v  -1.7715 14.7648 -0.0930
v  -2.1589 14.1306 -0.0175
v  -2.7869 13.6862 0.0096
v  -3.3926 14.0085 -0.1740
v  -3.9702 14.3871 -0.4526
v  -4.4627 14.4746 -0.5598
v  -4.9560 14.4334 -0.5573
v  2.6798 15.8828 -2.2367
v  2.4795 15.9256 -1.9899
v  2.5464 15.8478 -1.9680
v  2.5673 15.7420 -2.0073
v  2.6712 15.8322 -2.2335
v  2.5392 15.7046 -2.0642
v  2.4707 15.8462 -2.0934
v  2.2917 15.8943 -1.7668
v  2.4268 15.7930 -1.6972
v  2.4267 15.6100 -1.7096
v  2.2830 15.7596 -1.8703
v  2.2520 15.3243 -1.3421
v  2.2727 15.6655 -1.3764
v  2.0301 15.6378 -1.1354
v  1.9715 15.1760 -1.0386
v  1.6349 15.9143 -0.8300
v  1.4946 15.1809 -0.6862
v  2.3687 15.5521 -1.7757
v  2.2139 15.2357 -1.5333
v  1.9848 14.8384 -1.3535
v  1.4366 14.7216 -0.9915
v  2.1356 15.8375 -1.4825
v  1.8525 15.7516 -1.2408
v  1.5155 16.0885 -1.3182
v  2.1221 15.5925 -1.6139
v  1.7892 15.2142 -1.5638
v  1.2482 15.2510 -1.5212
v  0.9623 12.5524 1.5983
v  0.9454 12.4473 1.5681
v  1.0208 12.5610 1.3271
v  1.0054 12.6851 1.3710
v  1.0962 12.9066 1.1636
v  1.0991 12.7461 1.0865
v  1.0813 12.9371 0.8768
v  1.1047 13.1185 0.9770
v  1.0265 12.9583 0.5961
v  1.0075 13.2207 0.6920
v  0.9686 13.3539 0.2024
v  1.1131 12.8505 -0.1325
v  0.9613 12.7214 1.3856
v  0.9989 12.8979 1.1570
v  0.9579 13.2038 1.0130
v  0.8667 13.3602 0.8003
v  0.6203 13.6758 0.3072
v  0.9179 12.6596 1.3588
v  0.9181 12.8267 1.1387
v  0.9078 12.9934 0.9394
v  0.7463 13.0118 0.7631
v  0.3050 12.9653 0.5311
v  0.9066 12.5049 1.2947
v  0.9742 12.6714 1.0605
v  1.0283 12.8637 0.8670
v  0.8581 12.7894 0.6617
v  0.7283 12.6939 0.4600
v  -0.8716 2.0286 3.2236
v  -0.7733 1.8691 3.3694
v  -0.6983 1.8823 3.5235
v  -0.8819 2.1237 3.3026
v  -0.7197 1.9650 3.1670
v  -0.5953 2.0536 3.2452
v  -0.7919 2.2289 3.3431
v  -0.6606 2.0672 3.5279
v  -0.5970 2.2202 3.3535
v  -1.0491 2.5794 2.9492
v  -1.0830 2.4316 2.8458
v  -1.3123 2.6376 2.4945
v  -1.2806 2.8403 2.5707
v  -1.5562 2.7587 1.9301
v  -1.3728 3.0414 1.9737
v  -1.2712 3.6005 1.0193
v  -1.4234 3.0021 0.8368
v  -1.0543 2.9570 1.9433
v  -0.7435 3.5610 1.1792
v  -0.9412 2.7849 2.4759
v  -0.6761 2.6230 2.9410
v  -0.8581 2.2713 2.7365
v  -0.7394 2.3934 2.7956
v  -1.0209 2.4409 2.3913
v  -0.9039 2.5795 2.4025
v  -1.0371 2.4474 1.8656
v  -0.9948 2.6973 1.8984
v  -0.8118 2.3860 1.0537
v  -0.6483 2.9296 1.2862
v  -1.0464 2.3016 2.7742
v  -1.2600 2.3648 2.4290
v  -1.3573 2.3307 1.8216
v  -1.2448 2.3324 0.8875
v  4.9211 1.5602 0.0550
v  4.4795 1.6842 -0.0279
v  4.4586 1.5175 0.1178
v  4.1607 1.8766 -0.1754
v  3.9238 1.7273 -0.1678
v  3.4075 2.4836 -0.2298
v  3.2526 2.1183 -0.1972
v  2.7450 3.0361 -0.0730
v  2.5836 2.3351 0.0701
v  1.8532 3.3849 0.4225
v  1.5947 1.8858 0.5686
v  4.4577 1.3797 -0.0686
v  3.8418 1.4800 -0.2739
v  3.1702 1.9159 -0.3868
v  2.5255 2.0394 -0.2690
v  1.9893 1.5122 -0.1726
v  4.5063 1.5812 -0.1502
v  4.1003 1.8477 -0.4247
v  3.4840 2.4489 -0.5550
v  2.8866 3.1386 -0.5411
v  2.2359 3.5025 -0.5238
v  4.4910 1.4767 -0.1862
v  4.0083 1.5957 -0.5137
v  3.2969 2.0651 -0.7159
v  2.7719 2.3722 -0.6698
v  1.9397 2.4960 -1.0342
v  -0.5685 3.6528 -3.5059
v  -0.6345 3.7494 -3.5519
v  -0.4762 3.9108 -3.5195
v  -0.4799 3.7328 -3.3986
v  -0.6045 3.6823 -3.3250
v  -0.7179 3.7764 -3.3659
v  -0.6416 3.9035 -3.4513
v  -0.2877 4.0960 -3.2070
v  -0.3080 3.8342 -3.0475
v  -0.0461 4.3503 -2.7774
v  0.1185 3.7112 -2.7688
v  -0.5819 4.1660 -3.1828
v  -0.3812 4.4541 -2.6956
v  -0.4778 3.6826 -2.9695
v  -0.3662 3.4024 -2.7452
v  -0.6644 3.9181 -3.0063
v  -0.5997 3.9714 -2.6320
v  1.7983 0.3519 0.5945
v  2.0583 0.4487 -0.1368
v  2.0279 0.3808 -0.7511
v  1.7854 0.3600 -1.9176
v  1.6474 2.5128 -1.8599
v  0.8756 0.3691 -2.7209
v  0.8057 2.4444 -2.5996
v  -0.3239 2.4019 -2.8279
v  -0.4109 0.4156 -2.9442
v  -1.2381 0.3846 -2.4366
v  -1.1132 2.3739 -2.3363
v  -1.7657 0.4037 -1.3808
v  -1.5411 2.4144 -1.3260
v  -1.6458 2.3891 -0.1829
v  -1.8954 0.4515 -0.1345
v  -1.2210 0.4045 1.0831
v  -0.7142 0.4221 1.2880
v  -0.0477 0.4186 1.5399
v  -0.0443 2.5016 1.2015
v  0.8810 0.3647 1.2599
v  0.9902 2.2885 0.9405
v  -0.0639 3.4416 1.1034
v  1.0015 3.3062 0.8347
v  1.5129 3.4186 -1.8892
v  0.8047 3.2829 -2.4986
v  -1.4425 3.5646 -1.3006
v  -1.0826 3.5771 -2.1967
v  -1.5401 3.5063 -0.1939
v  -1.1109 4.6297 -1.9932
v  -1.3962 4.8150 -1.2166
v  -1.4927 4.7972 -0.2227
v  -0.7696 4.9471 0.7019
v  0.1499 4.8706 1.0254
v  0.9690 4.8257 0.6849
v  1.4930 4.7747 0.1904
v  1.5440 5.0524 -0.7377
v  1.3450 4.9051 -1.6986
v  0.7691 4.7323 -2.2563
v  -0.0891 6.9354 -2.0628
v  0.4952 7.0519 -1.8789
v  -0.9677 6.8722 -1.7295
v  -1.3181 6.9430 -1.1995
v  -1.4638 6.9025 -0.2597
v  -0.8026 7.3471 0.7017
v  -0.0150 7.0346 0.9481
v  0.7463 7.1118 0.6256
v  1.1863 7.0687 0.0080
v  1.1881 7.1119 -0.7251
v  1.0005 7.1926 -1.5018
v  -0.8822 9.9293 -1.4563
v  0.1647 9.8580 -1.8408
v  -1.2039 10.1590 -0.4191
v  -0.8057 10.1598 0.5365
v  0.1180 10.0954 0.7517
v  0.6446 10.0083 0.4682
v  1.0030 9.9089 -0.3816
v  0.8384 9.3739 -1.4410
v  1.1062 12.7390 -1.0632
v  0.2767 12.7264 -1.7628
v  -0.5538 12.7471 -1.4555
v  -0.8682 12.6553 -0.4105
v  -0.5087 13.0308 0.3381
v  1.1206 14.6644 -0.0971
v  0.5158 14.7270 0.3888
v  -0.3573 14.6807 0.1981
v  -0.6686 14.5263 -0.5538
v  -0.4166 14.4298 -1.4552
v  0.5186 14.5459 -1.7727
v  1.1382 15.8398 0.0058
v  0.4193 15.9481 0.3943
v  -0.2459 15.6755 0.2791
v  -0.2582 15.5804 -1.4385
v  0.5137 15.5466 -1.7041
v  0.9533 16.8229 -1.4159
v  -0.0506 16.8040 -1.3971
v  -0.5615 17.0282 -0.6848
v  -0.5041 17.0497 -0.0735
v  -0.2850 16.4112 0.2608
v  0.4331 16.7156 0.4100
v  1.1755 16.7541 -0.0417
v  1.3935 16.7038 -0.6565
v  0.8248 19.0012 -1.1077
v  1.0386 18.9583 -0.4879
v  -0.0801 18.9200 -1.2366
v  -0.5078 18.8644 -0.7095
v  -0.4372 18.7890 0.0721
v  0.2229 18.9432 0.4682
v  0.8077 18.9053 0.2444
v  -0.4864 21.3142 -0.1590
v  -0.2114 21.2531 0.2404
v  0.4156 21.3260 0.2019
v  0.7483 21.2686 -0.3190
v  0.4395 21.2835 -0.9556
v  -0.0628 21.3100 -1.0411
v  -0.4977 21.3178 -0.5702
v  3.3480 7.9834 3.3693
v  4.1553 7.8726 3.4443
v  3.0738 8.3435 2.2891
v  2.7772 8.4457 2.6637
v  2.1773 9.2596 1.2825
v  1.7737 9.2275 1.5203
v  2.2335 7.9506 4.6224
v  2.8856 7.9271 4.8495
v  3.6502 7.9558 4.5635
v  1.3448 8.4173 3.2302
v  1.8579 7.9038 4.9544
v  1.2526 7.8808 5.1216
v  1.6251 7.7838 5.3281
v  1.7545 7.7366 5.1804
v  0.2541 8.4627 3.4129
v  -0.2501 9.0211 2.2305
v  -1.2474 8.9428 2.0833
v  -1.0583 8.2482 3.1474
v  -0.2046 7.9781 3.9123
v  -0.8257 7.9731 3.9551
v  -0.4428 7.5372 4.6716
v  0.6418 9.2344 1.9997
v  3.6894 8.6880 1.5347
v  3.9265 8.6414 0.7856
v  2.5254 9.3380 0.6288
v  3.4254 8.5195 2.0250
v  4.9411 8.2744 1.0633
v  4.9174 8.1613 0.6889
v  4.0961 8.2738 2.6078
v  4.5698 8.4516 1.9414
v  5.0404 7.9539 3.6906
v  3.8000 8.6863 -0.6865
v  4.8815 8.6634 -0.7018
v  5.6820 8.7417 -0.5155
v  5.7103 8.2500 0.3598
v  4.6172 7.9956 -1.8296
v  5.9203 7.7474 -3.1246
v  5.0376 7.4478 -3.9176
v  4.0240 7.9740 -2.5357
v  3.3508 8.5550 -1.3281
v  5.1911 8.0449 -1.1174
v  3.0793 8.5495 -1.8612
v  6.7885 8.2828 -2.3549
v  4.1351 7.3380 -4.5886
v  3.3950 7.9661 -3.0435
v  2.5960 7.2208 -4.9624
v  2.5722 7.9412 -3.4573
v  2.7866 8.5659 -2.2840
v  2.2783 8.5754 -2.7145
v  1.8037 7.1643 -5.1733
v  1.1148 7.0295 -5.3740
v  0.9134 7.7253 -3.8208
v  1.6898 7.8056 -3.6451
v  0.8219 8.3595 -3.2190
v  1.4967 8.4041 -2.9564
v  1.9650 6.9596 -6.0369
v  1.6688 7.0480 -6.2036
v  1.3829 7.0451 -6.1665
v  0.4628 6.6617 -5.7079
v  -0.2011 6.9407 -5.5972
v  -0.3051 7.8230 -3.9114
v  -0.7460 7.5542 -4.4209
v  -0.8952 7.1944 -5.8274
v  -2.2789 7.8092 -4.6060
v  -1.3928 8.3715 -3.3268
v  -2.8672 9.2134 -1.7021
v  -2.1744 8.9149 -2.5206
v  -3.4101 8.2610 -3.2913
v  -4.1744 8.9664 -2.2281
v  -0.1310 8.6531 -3.0851
v  -0.8670 9.0397 -2.7201
v  -2.1113 9.7792 -1.4427
v  -1.4977 9.5160 -2.2036
v  -4.5390 9.0414 -2.6294
v  -4.7745 8.6176 -3.0206
v  -3.6167 7.6470 -4.4649
v  -4.2958 7.8933 -3.7418
v  -4.8753 8.5769 -0.7237
v  -3.2773 9.1658 -0.5030
v  -5.7189 8.7191 0.4179
v  -3.6763 9.2467 0.5276
v  -2.2566 9.9631 -0.4718
v  -2.3642 9.9383 0.0875
v  -4.5324 8.4831 1.9195
v  -3.2989 9.0431 1.3147
v  -5.0339 9.2782 1.0022
v  -2.1626 9.7495 0.5746
v  -2.0383 8.8991 2.1877
v  -3.2581 8.2422 3.1580
v  -1.6851 9.8184 1.2037
v  -2.2112 8.4347 3.2677
v  -1.3303 8.3527 3.4254
v  -2.1276 8.0287 4.2816
v  -1.3034 7.8675 4.5479
v  -5.6336 8.5918 2.6945
v  -3.8911 8.0372 3.3372
v  -5.5386 9.2860 1.0484
v  -5.1935 8.5727 1.8814
v  -0.9745 9.8666 1.2838
v  2.4934 9.6346 -0.6315
v  2.0822 9.5272 -1.2631
v  1.5216 9.6467 -2.0468
v  0.8696 9.3599 -2.5066
v  -0.0212 9.5985 -2.4660
v  -0.7653 9.7340 -2.3500
v  -0.1083 10.0743 1.5575
v  0.5510 10.1304 1.3781
v  1.2273 10.0216 1.0662
v  1.8576 10.0099 0.5147
v  2.1135 10.1877 -0.4855
v  1.5690 11.1158 -0.6069
v  1.2788 10.8413 -0.9839
v  1.0721 10.8372 -1.6702
v  0.8718 12.0945 -1.4646
v  0.5124 10.6952 -1.8969
v  0.2387 11.9081 -1.6847
v  -0.0653 10.6701 -1.9667
v  1.1924 11.1883 0.0684
v  0.8388 11.1463 0.5454
v  0.3913 11.1696 0.8429
v  -0.0727 11.1510 1.0166
v  -0.5392 10.9469 0.7435
v  -1.1086 10.9569 0.6075
v  -1.3248 10.8858 0.1883
v  -1.4844 10.9392 -0.1815
v  -1.4203 10.8847 -0.6377
v  -1.3577 10.8398 -1.1459
v  -1.0310 10.7187 -1.6281
v  -0.6411 10.7612 -1.9074
v  -0.0886 11.8459 -1.6384
v  -0.4346 11.9003 -1.4850
v  -0.6978 11.9147 -1.2938
v  -0.8210 12.0595 -1.0774
v  -0.8640 12.1452 -0.5629
v  -0.8665 12.2003 -0.2977
v  -0.7765 12.2345 -0.0740
v  -0.6783 12.2987 0.1901
v  -0.2976 12.2505 0.3576
v  -0.0866 12.4073 0.5536
v  0.2092 12.4392 0.4928
v  0.5351 12.4438 0.1983
v  0.8232 12.4962 -0.2352
v  1.0981 12.4448 -0.7639
v  0.7283 12.2698 -0.8862
v  -2.7515 7.7676 -4.8822
v  2.8544 5.9501 3.6061
v  3.9038 5.4677 3.4942
v  2.9980 7.6794 1.5841
v  1.7825 7.8437 2.3679
v  1.6970 6.0765 3.8936
v  1.7204 6.4971 4.3233
v  0.2813 8.3108 2.2895
v  -0.3813 6.8047 3.9406
v  -1.5485 7.0865 3.3715
v  -0.6252 8.4252 2.0941
v  -1.1096 5.6845 5.4054
v  1.2463 5.9587 5.8234
v  -3.4645 6.4506 4.7964
v  -3.3358 6.0390 4.7335
v  -2.8785 5.5918 5.5958
v  -2.7511 5.2303 6.6991
v  -5.8752 7.2822 4.3923
v  -5.3238 6.9065 5.0317
v  -4.6843 6.6383 5.2387
v  -4.6630 7.1389 3.2224
v  -1.3475 5.5363 7.1454
v  -3.1105 7.5771 2.1360
v  -1.5989 8.7080 1.3208
v  -4.6234 6.6772 2.9440
v  -3.2299 7.2475 1.9439
v  -1.8818 8.5562 1.0542
v  -2.3695 8.3825 0.4739
v  -3.7431 7.4905 0.8941
v  -4.9964 7.3444 1.1298
v  -5.3056 7.0791 2.7126
v  -5.6013 7.4484 2.0482
v  -6.5107 7.4988 0.2693
v  -5.7055 7.4751 1.0971
v  -4.9398 6.9638 -1.0211
v  -6.8347 7.6497 -0.7950
v  -3.8450 7.3378 -0.9686
v  -3.8882 6.3016 -2.7253
v  -5.4106 6.4180 -2.7221
v  -4.4755 6.0704 -3.2868
v  -3.6600 6.0800 -3.3623
v  -4.6091 5.6477 -3.9811
v  -5.0752 6.1397 -3.3496
v  -0.5499 6.4637 -4.2704
v  0.4407 6.2143 -4.2022
v  0.4575 4.5703 -5.6400
v  -0.7837 5.7191 -5.2328
v  -2.8672 6.3488 -3.4184
v  -4.0745 5.8003 -4.1412
v  -1.6791 5.5165 -5.5097
v  -2.4941 5.8879 -4.6376
v  -1.9276 6.3927 -3.9972
v  -2.9103 4.9524 -6.0726
v  -3.1980 5.3141 -5.3550
v  -0.7917 4.0854 -6.5018
v  -1.5105 4.9206 -5.9647
v  -2.2213 4.0416 -7.0103
v  -2.4056 4.5182 -6.6309
v  -3.4217 4.1715 -7.1391
v  1.5038 4.5728 -6.0597
v  0.4466 3.5278 -7.1454
v  2.2351 5.5118 -4.8298
v  2.1718 6.4315 -3.8413
v  4.0013 5.0842 -4.0537
v  4.0370 5.8011 -2.8114
v  6.3241 4.7883 -3.9647
v  5.9460 5.4239 -2.8261
v  6.0336 5.8752 -2.0252
v  4.6014 6.5690 -1.9942
v  4.9738 6.7378 0.0884
v  6.3369 5.9485 -0.4337
v  6.8347 5.8020 -1.3456
v  4.7478 6.7151 -0.7235
v  4.7954 6.8809 -1.8247
v  6.3683 6.3904 -2.1256
v  3.4459 7.6640 0.0465
v  4.9113 6.3667 -0.0212
v  5.3994 5.4546 2.1503
v  5.5450 5.9080 0.3519
v  4.6837 6.4280 1.5036
v  5.7957 5.1959 2.0589
v  5.3515 4.0514 3.7431
v  4.1740 6.7073 2.0530
v  4.8968 5.3288 2.9824
v  5.1563 4.1822 3.7352
v  2.9699 7.9544 0.8516
v  3.0457 8.0091 -0.5255
v  3.3940 7.9773 -1.3722
v  2.4770 7.8797 -1.6568
v  1.5606 8.0061 -2.6106
v  0.5169 7.9953 -2.7323
v  -0.2797 8.0979 -2.5273
v  -1.1774 8.0401 -2.4300
v  -1.8826 7.8823 -2.0672
v  -3.1854 7.0425 -1.8257
v  -2.5579 8.3325 -0.9819
v  0.0831 10.0916 -1.1507
v  0.7909 10.3882 -1.2805
v  1.1184 10.4779 -1.0927
v  1.5769 10.4250 -0.7294
v  1.4450 10.4356 -0.3079
v  1.2636 10.4554 0.0995
v  1.1539 10.4631 0.2676
v  1.0131 10.5894 0.7223
v  0.2635 10.5301 0.6538
v  -0.6595 10.6310 0.3762
v  -0.4816 10.6160 0.0603
v  -0.6377 10.5810 -0.8647
v  -0.3457 10.3438 -1.1715
# 797 vertices

vn 0.3183 0.9462 -0.0591
vn 0.5016 0.8514 -0.1532
vn 0.5781 0.7984 -0.1684
vn 0.5121 0.8494 -0.1275
vn 0.6934 0.6705 -0.2640
vn 0.7906 0.5766 -0.2060
vn 0.3826 0.9233 -0.0325
vn 0.2294 0.9708 0.0706
vn -0.0954 0.9851 0.1430
vn -0.2635 0.8976 0.3532
vn -0.3766 0.8951 0.2387
vn -0.1926 0.9751 0.1102
vn 0.1101 0.8628 0.4934
vn 0.1783 0.7688 0.6142
vn 0.3345 0.8907 0.3077
vn 0.1858 0.7649 0.6168
vn 0.3540 0.7936 0.4948
vn 0.3008 0.7657 0.5686
vn 0.3766 0.7773 0.5039
vn 0.3300 0.7316 0.5966
vn 0.3403 0.8616 0.3766
vn 0.4899 0.8138 0.3126
vn -0.0102 0.8572 0.5148
vn 0.0285 0.7567 0.6532
vn 0.3094 0.8722 0.3788
vn 0.2004 0.9373 0.2850
vn 0.3437 0.8927 0.2913
vn 0.2876 0.9324 0.2191
vn -0.0983 0.9951 0.0023
vn -0.0440 0.9988 -0.0211
vn -0.2582 0.8955 0.3624
vn -0.6200 0.6984 -0.3576
vn -0.5037 0.7493 -0.4299
vn -0.5493 0.8152 0.1837
vn -0.4008 0.8573 0.3230
vn -0.1087 0.9673 0.2290
vn -0.1708 0.9483 0.2674
vn 0.2221 0.9648 0.1407
vn 0.0459 0.9719 0.2308
vn -0.0009 0.9988 -0.0482
vn 0.3543 0.9234 -0.1476
vn -0.3723 0.9257 -0.0670
vn 0.2023 0.8041 -0.5590
vn -0.2170 0.9376 -0.2717
vn -0.3742 0.8336 -0.4064
vn -0.2040 0.9341 -0.2929
vn -0.1709 0.9260 -0.3367
vn -0.2927 0.8595 -0.4189
vn -0.1221 0.9044 -0.4089
vn 0.0049 0.8647 -0.5023
vn 0.0772 0.9184 -0.3882
vn 0.0741 0.9586 -0.2750
vn 0.1058 0.8700 -0.4815
vn 0.2428 0.9189 -0.3109
vn 0.4408 0.7118 -0.5468
vn 0.1664 0.8615 -0.4797
vn 0.1423 0.8820 -0.4492
vn 0.1323 0.8993 -0.4168
vn 0.1738 0.9190 -0.3539
vn 0.6713 0.6391 -0.3753
vn 0.5783 0.6907 -0.4342
vn 0.5741 0.6985 -0.4272
vn 0.5777 0.7197 -0.3850
vn 0.5819 0.7215 -0.3754
vn 0.6585 0.6845 -0.3127
vn 0.6935 0.6535 -0.3032
vn 0.7261 0.6497 -0.2250
vn 0.3553 0.9218 -0.1552
vn 0.2716 0.9621 0.0248
vn 0.5943 0.5596 -0.5777
vn 0.1097 0.9810 -0.1599
vn 0.0480 0.9843 -0.1698
vn 0.1815 0.9792 -0.0911
vn 0.0507 0.9787 0.1988
vn 0.8079 0.5836 -0.0821
vn 0.6283 0.7377 -0.2472
vn 0.6320 0.7086 0.3137
vn 0.5046 0.8610 0.0634
vn 0.2963 0.9334 -0.2024
vn 0.3044 0.9481 -0.0914
vn 0.0642 0.9978 -0.0154
vn 0.0849 0.9958 -0.0339
vn 0.1845 0.9547 -0.2333
vn 0.2207 0.9731 0.0660
vn 0.8110 0.5211 -0.2660
vn 0.8365 0.4584 -0.3003
vn 0.5566 0.5343 -0.6362
vn -0.1455 0.7167 -0.6821
vn -0.5855 0.6139 -0.5295
vn -0.6462 0.6321 -0.4276
vn -0.6687 0.7427 -0.0363
vn -0.7268 0.5919 0.3486
vn -0.6544 0.5323 0.5371
vn -0.3664 0.6398 0.6756
vn -0.3416 0.5966 0.7262
vn -0.0984 0.5670 0.8178
vn 0.2082 0.5610 0.8012
vn 0.3483 0.6155 0.7070
vn 0.5328 0.6538 0.5373
vn 0.8921 0.4403 0.1013
vn 0.7300 0.4076 0.5486
vn 0.9231 0.3387 -0.1822
vn 0.7009 0.4511 -0.5525
vn -0.1095 0.5060 -0.8555
vn -0.6781 0.4102 -0.6098
vn -0.8426 0.4228 -0.3337
vn -0.8931 0.4487 0.0337
vn -0.6690 0.4202 0.6130
vn 0.0004 0.3684 0.9297
vn 0.6009 0.3425 0.7222
vn 0.3091 0.2101 0.9275
vn 0.8775 0.2053 0.4335
vn 0.9110 0.3463 -0.2239
vn -0.0064 0.3424 -0.9395
vn -0.8997 0.2482 -0.3592
vn -0.8059 0.1510 0.5725
vn -0.5771 0.1332 -0.8057
vn 0.7927 0.2233 -0.5672
vn -0.4728 0.5896 -0.6549
vn 0.6994 0.5271 -0.4827
vn 0.5490 0.1376 0.8244
vn 0.4803 0.6670 0.5696
vn -0.8415 0.0104 0.5401
vn -0.5829 0.6563 0.4791
vn 0.0918 0.8416 0.5323
vn 0.0058 0.7634 0.6459
vn 0.0887 0.7858 0.6121
vn 0.6225 0.6766 0.3933
vn 0.1104 0.8508 0.5137
vn 0.7723 0.5125 0.3754
vn 0.6180 0.7412 0.2622
vn 0.7764 0.4381 0.4530
vn -0.3775 0.5914 0.7126
vn 0.2851 0.8156 0.5036
vn 0.3062 0.8836 0.3542
vn 0.3005 0.8969 0.3245
vn -0.5135 0.5404 0.6665
vn -0.3115 0.3484 0.8841
vn -0.2500 0.5223 0.8153
vn -0.2071 0.5074 0.8365
vn -0.1560 0.3667 0.9172
vn -0.0716 0.2313 0.9702
vn -0.1564 0.4840 0.8610
vn -0.2897 0.5653 0.7724
vn -0.5387 0.6708 0.5097
vn -0.8076 0.5753 0.1294
vn -0.5448 0.8230 0.1607
vn -0.5270 0.8420 0.1155
vn -0.6223 0.7753 0.1082
vn -0.5736 0.7160 0.3980
vn -0.1853 0.9446 0.2711
vn -0.0997 0.9245 0.3680
vn -0.2035 0.8949 0.3971
vn -0.3724 0.8598 0.3492
vn -0.1608 0.9212 0.3544
vn -0.0531 0.9477 0.3147
vn 0.2288 0.9289 0.2911
vn -0.0545 0.8929 0.4469
vn -0.2061 0.8617 0.4637
vn 0.4947 0.8392 0.2260
vn -0.0924 0.7665 0.6355
vn 0.2203 0.9732 -0.0658
vn 0.2149 0.6781 -0.7028
vn 0.3908 0.7995 -0.4561
vn 0.1836 0.3495 -0.9188
vn 0.4846 0.6831 -0.5463
vn 0.4732 0.8263 -0.3054
vn 0.5075 0.7956 -0.3308
vn 0.5317 0.8381 -0.1220
vn 0.4053 0.8471 -0.3437
vn 0.3637 0.8093 -0.4613
vn 0.3869 0.8273 -0.4072
vn 0.2687 0.8480 -0.4569
vn 0.4289 0.6501 -0.6272
vn 0.2376 0.5444 -0.8044
vn 0.0635 0.1973 -0.9783
vn 0.3256 0.4554 -0.8286
vn 0.3411 0.7873 -0.5136
vn 0.1628 0.8216 -0.5463
vn 0.2598 0.7786 -0.5713
vn 0.3958 0.8061 -0.4399
vn 0.4195 0.8330 -0.3607
vn 0.4008 0.7933 -0.4584
vn 0.4150 0.7865 -0.4573
vn 0.3941 0.7635 -0.5116
vn 0.3880 0.7538 -0.5303
vn 0.1567 0.6231 -0.7663
vn 0.4228 0.6414 -0.6402
vn 0.5076 0.5979 -0.6203
vn 0.5327 0.6703 -0.5167
vn -0.1956 0.5287 -0.8260
vn 0.3149 0.6685 -0.6738
vn -0.0229 0.6384 -0.7694
vn -0.0891 0.6175 -0.7815
vn 0.0257 0.6720 -0.7401
vn 0.0138 0.6624 -0.7490
vn -0.1203 0.7544 -0.6453
vn 0.4416 0.8747 -0.2000
vn 0.5376 0.8428 0.0251
vn 0.6611 0.6989 -0.2729
vn 0.5550 0.6922 -0.4613
vn -0.2243 0.8338 -0.5044
vn -0.5488 0.5878 -0.5944
vn -0.4977 0.8626 -0.0900
vn -0.6237 0.6295 -0.4633
vn -0.3848 0.8663 -0.3186
vn -0.0798 0.5385 -0.8388
vn -0.3150 0.4658 -0.8270
vn -0.1098 0.9936 0.0280
vn -0.0641 0.9821 -0.1770
vn 0.0701 0.5641 -0.8227
vn -0.0022 0.9984 -0.0566
vn 0.0757 0.9945 -0.0723
vn 0.0341 0.9836 -0.1771
vn -0.0224 0.9924 -0.1207
vn -0.0365 0.9473 0.3183
vn -0.1911 0.8882 -0.4179
vn -0.5320 0.7774 -0.3355
vn -0.4482 0.8566 0.2556
vn -0.2250 0.7965 0.5613
vn -0.2595 0.9548 0.1448
vn -0.5941 0.8044 0.0072
vn -0.6143 0.6767 0.4058
vn -0.5178 0.5683 0.6394
vn -0.6374 0.7326 0.2388
vn -0.6184 0.7850 0.0379
vn 0.2887 0.4422 0.8492
vn 0.0948 0.5910 0.8011
vn 0.0917 0.6242 0.7758
vn 0.3156 0.6769 0.6649
vn 0.5217 0.6596 0.5411
vn 0.3483 0.4296 0.8331
vn 0.6045 0.5394 0.5862
vn 0.7093 0.6682 0.2245
vn 0.5859 0.7638 -0.2708
vn 0.4663 0.7164 -0.5190
vn -0.1260 0.5147 -0.8481
vn 0.3453 0.5283 -0.7757
vn 0.4979 0.5238 -0.6912
vn -0.8484 0.5209 0.0940
vn -0.8005 0.4042 0.4425
vn -0.8087 0.5802 -0.0964
vn -0.7323 0.4388 -0.5208
vn -0.6234 0.4902 -0.6092
vn 0.7920 0.5661 0.2287
vn 0.7238 0.6453 -0.2444
vn 0.7159 0.4537 -0.5308
vn 0.6192 0.4142 -0.6671
vn 0.4536 0.4449 -0.7722
vn 0.0917 0.5379 -0.8380
vn -0.7796 0.6248 -0.0433
vn -0.8565 0.3390 0.3892
vn -0.8180 0.4423 0.3678
vn -0.5137 0.5057 0.6931
vn 0.0991 0.3153 0.9438
vn 0.2640 0.2731 0.9251
vn 0.8544 0.3923 0.3406
vn 0.9040 0.4244 -0.0512
vn 0.9169 0.3887 -0.0906
vn 0.6991 0.3503 -0.6233
vn 0.1808 0.4150 -0.8917
vn -0.5533 0.4085 -0.7259
vn -0.8268 0.3250 -0.4592
vn -0.9332 0.3519 -0.0731
vn -0.4017 -0.5142 0.7578
vn -0.2723 0.0953 0.9575
vn -0.2072 0.0151 0.9782
vn 0.3509 -0.7264 0.5909
vn -0.6614 0.6822 0.3117
vn -0.7927 0.5107 0.3328
vn -0.7578 0.2505 -0.6024
vn -0.8569 0.3288 -0.3970
vn -0.7273 0.3080 0.6134
vn -0.5736 0.3990 -0.7154
vn -0.5549 0.0010 -0.8319
vn -0.2559 -0.2094 -0.9437
vn -0.2295 -0.0637 -0.9712
vn 0.3365 -0.7771 -0.5319
vn -0.5455 -0.6379 -0.5436
vn -0.2171 0.0802 -0.9729
vn -0.7488 0.5553 -0.3619
vn 0.0664 -0.1029 -0.9925
vn -0.0448 0.8362 -0.5465
vn 0.2567 -0.1731 -0.9509
vn 0.5110 0.7222 -0.4661
vn 0.2017 -0.2161 -0.9553
vn 0.3765 0.7171 -0.5866
vn 0.0682 -0.3380 -0.9387
vn 0.0236 0.8081 -0.5886
vn -0.1881 -0.3481 -0.9184
vn -0.3776 0.7257 -0.5751
vn -0.9649 -0.2087 0.1596
vn 0.6191 -0.4850 -0.6177
vn 0.4770 -0.5239 -0.7057
vn 0.1209 -0.6947 -0.7091
vn -0.1193 -0.6708 -0.7320
vn -0.2002 -0.9205 -0.3355
vn -0.0192 -0.9594 -0.2813
vn -0.0575 -0.9425 -0.3294
vn -0.4209 0.4672 0.7775
vn -0.1541 0.5616 0.8129
vn 0.1424 0.8410 0.5219
vn 0.0675 0.8245 0.5619
vn -0.1244 0.8083 0.5755
vn -0.2857 0.7684 0.5727
vn 0.0559 -0.0173 0.9983
vn 0.0781 0.0121 0.9969
vn -0.1219 -0.0495 0.9913
vn -0.3346 0.1410 0.9317
vn -0.2907 0.1031 0.9512
vn -0.1495 0.0499 0.9875
vn -0.1256 0.1879 0.9741
vn 0.7221 -0.4249 0.5460
vn 0.6309 -0.5933 0.5000
vn 0.0224 -0.9100 0.4140
vn -0.5227 -0.8274 0.2056
vn -0.4276 -0.5739 0.6984
vn -0.1277 -0.7740 0.6202
vn -0.0459 -0.6978 0.7148
vn 0.5819 0.4941 -0.6459
vn -0.0448 0.9987 -0.0262
vn 0.8167 0.3704 0.4425
vn 0.8920 -0.3612 0.2718
vn 0.5174 -0.4405 -0.7337
vn 0.1085 -0.8669 -0.4866
vn -0.6896 0.1812 -0.7012
vn -0.3657 0.9297 -0.0430
vn 0.7534 0.4457 0.4835
vn 0.9184 -0.3357 0.2095
vn -0.7915 -0.0217 -0.6107
vn 0.8736 -0.2524 0.4160
vn 0.7328 0.3436 0.5873
vn 0.6365 0.4311 0.6395
vn 0.6656 -0.2608 0.6992
vn 0.8806 0.2828 0.3802
vn 0.7849 -0.1975 0.5874
vn 0.1417 -0.7991 -0.5842
vn 0.5825 -0.5617 -0.5875
vn 0.4032 -0.8840 -0.2367
vn 0.8430 -0.5208 -0.1343
vn -0.2294 0.9729 0.0289
vn 0.2891 0.8676 -0.4046
vn 0.6623 0.3727 -0.6499
vn -0.6411 0.0632 -0.7649
vn -0.1621 -0.1574 -0.9741
vn 0.2834 -0.1304 -0.9501
vn 0.0459 0.1544 0.9869
vn -0.1098 -0.7656 0.6338
vn 0.8614 -0.5037 -0.0651
vn 0.8475 0.3139 0.4279
vn 0.6906 0.4396 0.5742
vn 0.8929 -0.4121 -0.1814
vn 0.9493 -0.2030 -0.2399
vn 0.8659 0.4357 0.2459
vn 0.9437 -0.3238 -0.0679
vn 0.9006 0.4346 -0.0007
vn 0.9305 0.2578 0.2603
vn 0.9894 0.0433 0.1382
vn -0.1588 0.7635 0.6260
vn -0.3793 0.6425 0.6658
vn -0.1421 0.6683 0.7302
vn 0.0517 0.7797 0.6240
vn 0.1670 0.3172 0.9336
vn -0.9636 0.2220 0.1493
vn -0.9761 0.2027 0.0784
vn -0.8686 -0.2978 0.3960
vn -0.5812 -0.2893 0.7606
vn -0.2463 0.1200 0.9617
vn -0.5513 -0.7546 -0.3559
vn -0.3378 -0.7164 -0.6104
vn 0.2066 -0.9308 -0.3015
vn 0.0662 -0.9317 0.3572
vn 0.4604 -0.4467 0.7671
vn -0.8049 -0.5873 -0.0853
vn -0.3190 -0.9474 0.0271
vn 0.1075 -0.6780 0.7271
vn -0.8588 -0.0177 0.5119
vn 0.2085 -0.8323 -0.5136
vn 0.9215 -0.3368 -0.1934
vn -0.3672 0.5492 0.7507
vn 0.2971 0.1835 0.9370
vn 0.7594 0.4789 0.4404
vn -0.5688 0.5259 0.6324
vn -0.8966 -0.2358 0.3750
vn -0.9213 -0.0829 0.3798
vn -0.5367 0.6746 0.5068
vn -0.9871 0.0635 0.1469
vn -0.4751 0.7879 0.3918
vn -0.7519 0.4378 0.4929
vn -0.9939 0.0330 0.1057
vn 0.6712 0.6053 0.4279
vn 0.0748 0.3989 0.9140
vn 0.6731 0.7337 0.0927
vn 0.7096 0.6824 0.1756
vn 0.3017 -0.7758 -0.5542
vn 0.8684 -0.1966 -0.4553
vn 0.5178 -0.7996 -0.3041
vn 0.9298 -0.1554 -0.3336
vn 0.7132 -0.6857 0.1456
vn 0.9789 -0.0373 0.2011
vn 0.0491 -0.4320 0.9006
vn 0.5547 -0.0447 0.8309
vn -0.6112 -0.7899 -0.0505
vn -0.5045 -0.8469 0.1682
vn -0.4467 -0.8936 0.0441
vn -0.8459 -0.3163 0.4294
vn 0.9754 0.0598 0.2123
vn 0.3353 0.9155 0.2224
vn -0.1542 -0.1822 0.9711
vn 0.4069 0.7886 0.4610
vn -0.2553 -0.0953 0.9621
vn 0.5655 0.4884 0.6646
vn 0.0141 -0.3412 0.9399
vn 0.5524 0.5265 0.6463
vn 0.4313 -0.2823 0.8569
vn 0.5915 0.2622 0.7625
vn 0.6326 -0.0357 0.7736
vn -0.0056 -0.9988 0.0479
vn -0.4053 -0.8863 0.2241
vn -0.3887 -0.9178 0.0808
vn 0.3628 -0.9276 -0.0896
vn 0.9632 -0.2062 0.1723
vn 0.5395 0.4662 -0.7011
vn 0.6245 0.4267 -0.6541
vn 0.5676 0.5769 -0.5874
vn 0.5864 0.6976 -0.4117
vn 0.8169 0.5362 -0.2125
vn 0.4399 -0.4246 -0.7913
vn 0.1817 -0.4759 -0.8605
vn -0.0933 -0.2986 -0.9498
vn 0.1005 -0.3232 -0.9410
vn 0.8257 -0.0550 -0.5614
vn 0.2043 -0.7888 -0.5797
vn -0.3625 -0.2211 -0.9054
vn 0.4152 0.2620 -0.8712
vn 0.7271 -0.6153 -0.3046
vn -0.2804 -0.9501 0.1366
vn -0.9776 -0.2077 -0.0344
vn -0.6782 0.5306 -0.5084
vn 0.7027 0.3608 -0.6132
vn 0.7022 -0.4402 -0.5596
vn 0.3723 0.3268 -0.8687
vn 0.3859 0.0006 -0.9225
vn -0.5546 0.7544 -0.3512
vn -0.4675 0.4779 -0.7437
vn -0.4249 -0.8700 -0.2502
vn -0.3742 -0.1510 -0.9150
vn -0.9822 -0.0947 0.1624
vn -0.8979 0.0459 -0.4379
vn 0.7848 0.0971 0.6121
vn 0.9863 0.0691 0.1499
vn 0.9924 0.0350 -0.1180
vn 0.8552 0.0484 -0.5160
vn 0.8271 0.0889 -0.5550
vn 0.4407 0.0627 -0.8955
vn 0.4555 0.0606 -0.8882
vn -0.1876 0.0482 -0.9811
vn -0.1952 0.0671 -0.9785
vn -0.7368 0.0801 -0.6714
vn -0.7543 0.0837 -0.6512
vn -0.9566 0.1064 -0.2714
vn -0.9657 0.0992 -0.2399
vn -0.9917 0.0806 0.0999
vn -0.9796 0.1010 0.1736
vn -0.6496 0.0688 0.7571
vn -0.3626 0.0917 0.9274
vn -0.0095 0.1337 0.9910
vn 0.1030 0.0700 0.9922
vn 0.4345 0.1204 0.8926
vn 0.4022 0.0903 0.9111
vn 0.2109 0.0902 0.9733
vn 0.3618 0.1227 0.9241
vn 0.7876 0.1334 -0.6016
vn 0.5398 0.1182 -0.8335
vn -0.9704 0.0667 -0.2321
vn -0.8040 0.0655 -0.5910
vn -0.9957 0.0747 0.0540
vn -0.8109 0.1389 -0.5685
vn -0.9688 0.0545 -0.2420
vn -0.9724 0.0913 0.2149
vn -0.5647 0.1859 0.8041
vn 0.0922 0.0783 0.9927
vn 0.5471 0.0840 0.8328
vn 0.8341 0.2327 0.5001
vn 0.9686 0.2301 -0.0946
vn 0.8481 0.1725 -0.5010
vn 0.5500 0.1898 -0.8133
vn -0.0499 0.1584 -0.9861
vn 0.4195 0.1458 -0.8960
vn -0.6324 0.0913 -0.7693
vn -0.9302 0.0583 -0.3624
vn -0.9726 0.0453 0.2282
vn -0.5977 0.0464 0.8004
vn 0.0356 0.0420 0.9985
vn 0.6305 0.0822 0.7718
vn 0.9376 0.1239 0.3248
vn 0.9864 0.1232 -0.1089
vn 0.8252 0.1211 -0.5517
vn -0.7179 0.0986 -0.6891
vn 0.1211 0.0583 -0.9909
vn -0.9936 0.1013 0.0507
vn -0.6503 0.0809 0.7554
vn 0.1196 0.0539 0.9914
vn 0.7410 0.0213 0.6711
vn 0.9908 0.0048 0.1349
vn 0.8115 0.0441 -0.5827
vn 0.9152 -0.0525 -0.3996
vn 0.1610 -0.0044 -0.9869
vn -0.7246 0.0749 -0.6851
vn -0.9906 0.1223 0.0621
vn -0.6131 0.1547 0.7747
vn 0.8053 -0.0600 0.5899
vn 0.2118 -0.0486 0.9761
vn -0.5287 -0.1007 0.8428
vn -0.9961 -0.0766 -0.0444
vn -0.7248 0.0849 -0.6837
vn 0.1559 -0.0428 -0.9868
vn 0.7131 0.0064 0.7011
vn 0.1561 0.0038 0.9877
vn -0.2470 -0.0398 0.9682
vn -0.6015 0.0468 -0.7975
vn -0.0160 0.1072 -0.9941
vn 0.4538 0.2427 -0.8574
vn -0.4389 0.1421 -0.8872
vn -0.8501 0.3078 -0.4272
vn -0.8401 0.2706 0.4700
vn -0.3141 0.1012 0.9440
vn 0.1531 -0.0036 0.9882
vn 0.7922 0.0271 0.6097
vn 0.9739 0.2256 0.0251
vn 0.6413 0.1417 -0.7541
vn 0.9919 0.1259 -0.0148
vn -0.3857 0.0839 -0.9188
vn -0.9529 0.0233 -0.3023
vn -0.8366 -0.0091 0.5477
vn -0.0815 0.0065 0.9967
vn 0.7136 0.0786 0.6961
vn -0.9572 0.0169 0.2890
vn -0.4606 0.0710 0.8847
vn 0.4943 0.1363 0.8585
vn 0.9824 0.1714 0.0748
vn 0.5611 0.1418 -0.8155
vn -0.3416 0.0697 -0.9373
vn -0.9404 0.0231 -0.3393
vn 0.1443 0.9598 0.2407
vn 0.1034 0.9512 0.2908
vn 0.4752 0.8527 0.2169
vn 0.3389 0.8784 0.3370
vn 0.3727 0.8123 0.4486
vn 0.2611 0.7722 0.5792
vn 0.1036 0.9780 0.1809
vn 0.0005 0.9949 0.1013
vn -0.0021 0.9993 0.0384
vn 0.1382 0.9173 0.3735
vn 0.1342 0.9371 0.3223
vn 0.0548 0.9541 0.2944
vn 0.2603 0.8603 0.4384
vn 0.7628 0.3015 0.5720
vn -0.0632 0.8850 0.4614
vn -0.1353 0.7546 0.6421
vn -0.0703 0.7835 0.6174
vn -0.1713 0.8510 0.4963
vn -0.0875 0.8680 0.4888
vn 0.0201 0.9173 0.3977
vn 0.0282 0.8606 0.5085
vn 0.1625 0.7413 0.6512
vn 0.2543 0.9411 0.2228
vn 0.3657 0.9296 0.0460
vn 0.5332 0.8182 0.2150
vn 0.1351 0.9124 0.3863
vn 0.3751 0.9121 -0.1654
vn 0.3256 0.9388 0.1124
vn 0.0461 0.9539 0.2966
vn 0.1726 0.9691 0.1764
vn 0.0175 0.9629 0.2693
vn 0.3376 0.9232 -0.1837
vn 0.0639 0.9584 0.2780
vn -0.1962 0.8522 0.4851
vn -0.0376 0.9209 0.3880
vn 0.1875 0.9591 -0.2119
vn -0.1025 0.9618 -0.2538
vn 0.0751 0.9425 -0.3257
vn 0.2033 0.9443 -0.2586
vn 0.4277 0.8296 -0.3588
vn 0.0920 0.9657 -0.2430
vn 0.4754 0.8295 -0.2930
vn -0.3332 0.9076 -0.2556
vn 0.0963 0.9284 -0.3589
vn 0.2266 0.9073 -0.3543
vn 0.0162 0.9257 -0.3779
vn 0.0872 0.8599 -0.5029
vn 0.4705 0.7988 -0.3749
vn 0.2558 0.7422 -0.6194
vn -0.0183 0.9569 -0.2898
vn -0.1748 0.9321 -0.3173
vn 0.0577 0.8176 -0.5729
vn 0.0318 0.8404 -0.5411
vn 0.1437 0.6565 -0.7405
vn 0.1598 0.6757 -0.7197
vn 0.2618 0.9489 -0.1760
vn 0.0914 0.9926 -0.0800
vn -0.0079 0.9998 0.0171
vn 0.0764 0.8607 -0.5034
vn 0.2116 0.8380 -0.5029
vn 0.0880 0.7939 -0.6016
vn 0.1750 0.8861 -0.4293
vn 0.1891 0.9463 -0.2622
vn 0.0181 0.9392 -0.3428
vn -0.0120 0.8022 -0.5969
vn -0.2977 0.8928 -0.3380
vn -0.1964 0.7796 -0.5947
vn -0.0419 0.8620 -0.5051
vn 0.0280 0.9278 -0.3720
vn 0.0229 0.6359 -0.7715
vn -0.1294 0.6062 -0.7847
vn -0.5635 0.7054 -0.4300
vn -0.3519 0.5965 -0.7213
vn 0.7446 0.1795 -0.6429
vn 0.2236 0.7532 -0.6186
vn -0.1480 0.9127 -0.3810
vn -0.0465 0.8167 -0.5752
vn -0.2961 0.9460 -0.1320
vn -0.4372 0.8889 -0.1368
vn -0.2256 0.9323 -0.2828
vn -0.2366 0.9705 0.0466
vn -0.6855 0.7110 -0.1567
vn -0.5974 0.7835 0.1712
vn 0.0040 0.8830 0.4693
vn -0.1890 0.8881 0.4191
vn 0.0496 0.8105 0.5836
vn -0.4826 0.7830 0.3924
vn -0.1032 0.8520 0.5133
vn -0.1906 0.9029 0.3853
vn -0.3373 0.7222 0.6038
vn 0.0170 0.9227 0.3851
vn 0.0229 0.9210 0.3889
vn 0.0393 0.9219 0.3854
vn 0.0518 0.9171 0.3952
vn 0.2314 0.9531 0.1951
vn -0.0566 0.9448 0.3228
vn 0.0697 0.7718 0.6320
vn 0.0685 0.7720 0.6319
vn -0.2240 0.5779 0.7848
vn 0.6693 0.7207 -0.1804
vn 0.6276 0.6565 -0.4185
vn 0.5045 0.5908 -0.6296
vn 0.2131 0.5221 -0.8259
vn 0.0107 0.4771 -0.8788
vn -0.2003 0.4684 -0.8605
vn -0.1180 0.5315 0.8388
vn 0.3237 0.5157 0.7933
vn 0.4498 0.5787 0.6803
vn 0.6566 0.6333 0.4096
vn 0.8232 0.5621 -0.0793
vn 0.8759 0.4323 -0.2141
vn 0.8011 0.3632 -0.4757
vn 0.6611 0.3431 -0.6673
vn 0.8287 0.3295 -0.4523
vn 0.2039 0.3284 -0.9223
vn 0.0943 0.2300 -0.9686
vn 0.0132 0.3350 -0.9421
vn 0.7615 0.4436 0.4726
vn 0.6005 0.4320 0.6728
vn 0.4216 0.3989 0.8143
vn -0.1696 0.4193 0.8919
vn -0.3873 0.4138 0.8239
vn -0.5517 0.5070 0.6623
vn -0.7582 0.5278 0.3828
vn -0.8179 0.5651 0.1087
vn -0.8306 0.5323 -0.1633
vn -0.7688 0.5175 -0.3757
vn -0.5900 0.4452 -0.6736
vn -0.3353 0.3735 -0.8649
vn -0.2227 0.3102 -0.9242
vn -0.4378 0.3813 -0.8142
vn -0.6385 0.3612 -0.6796
vn -0.8470 0.3935 -0.3575
vn -0.8998 0.4178 -0.1256
vn -0.8887 0.4454 0.1086
vn -0.8701 0.4033 0.2832
vn -0.6636 0.3862 0.6406
vn -0.5616 0.2888 0.7754
vn -0.2459 0.3028 0.9208
vn 0.4246 0.2967 0.8554
vn 0.6954 0.3228 0.6420
vn 0.8104 0.3395 0.4775
vn 0.9008 0.2710 -0.3394
vn 0.7599 0.2245 -0.6100
vn -0.1153 0.9922 0.0477
vn 0.3540 0.6650 0.6577
vn 0.3822 0.6887 0.6161
vn 0.5544 0.7086 0.4365
vn 0.3532 0.6549 0.6681
vn 0.8095 0.3607 0.4632
vn 0.4770 0.7757 0.4132
vn 0.0301 0.6435 0.7649
vn -0.0570 0.8149 0.5767
vn -0.0898 0.8084 0.5818
vn -0.1905 0.6854 0.7028
vn -0.1017 0.9125 0.3962
vn -0.0711 0.9348 0.3479
vn 0.3256 0.7404 0.5880
vn 0.2815 0.5881 0.7582
vn -0.0058 0.9191 0.3939
vn -0.0161 0.9496 0.3129
vn 0.3252 0.9151 0.2384
vn 0.2901 0.9131 0.2864
vn 0.2755 0.9308 0.2404
vn -0.1279 0.9918 0.0069
vn -0.1271 0.9896 0.0669
vn -0.5072 0.8618 -0.0116
vn -0.4792 0.7024 0.5263
vn -0.2904 0.9373 -0.1926
vn -0.5250 0.8461 -0.0923
vn -0.6487 0.7172 0.2546
vn -0.6353 0.7501 0.1837
vn -0.3037 0.9445 0.1255
vn 0.0713 0.9967 0.0395
vn 0.4072 0.8632 0.2986
vn 0.4630 0.8557 0.2311
vn 0.2624 0.9619 -0.0770
vn 0.1861 0.9705 -0.1533
vn 0.0215 0.9612 -0.2752
vn 0.3262 0.9385 -0.1131
vn -0.4148 0.8597 -0.2980
vn -0.1842 0.8943 -0.4078
vn 0.1528 0.9279 -0.3401
vn 0.0197 0.8740 -0.4856
vn -0.2434 0.9174 -0.3149
vn -0.0907 0.9090 -0.4068
vn 0.1521 0.8310 -0.5351
vn 0.0359 0.7457 -0.6653
vn 0.1504 0.6634 -0.7330
vn 0.0251 0.7274 -0.6858
vn 0.2767 0.6126 -0.7404
vn -0.3363 0.8374 -0.4310
vn -0.2678 0.9223 -0.2785
vn -0.1597 0.8453 -0.5099
vn -0.1932 0.8582 -0.4756
vn -0.2490 0.8024 -0.5424
vn -0.1641 0.8529 -0.4956
vn -0.1775 0.8497 -0.4964
vn 0.2345 0.6606 -0.7132
vn 0.2336 0.6253 -0.7446
vn 0.1977 0.6565 -0.7280
vn 0.2007 0.6565 -0.7272
vn 0.1503 0.6507 -0.7443
vn -0.2147 0.8202 -0.5302
vn -0.2241 0.8020 -0.5537
vn 0.1400 0.7289 -0.6701
vn 0.3123 0.7037 -0.6383
vn 0.3202 0.7996 -0.5081
vn 0.3065 0.7451 -0.5923
vn 0.1527 0.8728 -0.4636
vn 0.2195 0.8319 -0.5097
vn 0.1304 0.4738 -0.8709
vn 0.1840 0.5610 -0.8071
vn 0.3898 0.7479 0.5373
vn 0.4287 0.9027 0.0369
vn 0.4483 0.8611 0.2398
vn 0.5113 0.8587 0.0350
vn 0.3323 0.7759 -0.5362
vn 0.3212 0.8822 -0.3444
vn 0.6778 0.7309 0.0801
vn 0.5615 0.7026 0.4371
vn 0.6226 0.6745 0.3969
vn 0.6197 0.7734 0.1334
vn 0.6617 0.7265 0.1857
vn 0.5622 0.7136 0.4179
vn 0.4913 0.5783 0.6514
vn 0.6276 0.7334 0.2613
vn 0.6484 0.5783 0.4951
vn 0.3503 0.5682 0.7446
vn 0.7164 0.6666 0.2059
vn 0.7663 0.6395 0.0621
vn 0.5527 0.7329 -0.3966
vn 0.4419 0.5410 -0.7156
vn 0.3754 0.5973 -0.7087
vn -0.0002 0.6196 -0.7849
vn -0.1033 0.6380 -0.7631
vn -0.3062 0.6469 -0.6984
vn -0.5025 0.6417 -0.5794
vn -0.4228 0.7519 -0.5059
vn -0.6529 0.6987 -0.2925
vn -0.0050 0.5409 -0.8411
vn 0.0400 0.5527 -0.8324
vn 0.4862 0.4992 -0.7173
vn 0.7833 0.5605 -0.2689
vn 0.7864 0.5670 0.2452
vn 0.7143 0.5971 0.3650
vn 0.7755 0.5245 0.3513
vn 0.5256 0.5832 0.6193
vn -0.1759 0.5729 0.8005
vn -0.7725 0.5993 0.2099
vn -0.8164 0.5718 -0.0807
vn -0.6768 0.6603 -0.3254
vn -0.1503 0.5427 -0.8264
# 797 vertex normals

vt 0.8052 0.8925 0.0000
vt 0.8110 0.9157 0.0000
vt 0.8071 0.9190 0.0000
vt 0.7901 0.8967 0.0000
vt 0.8057 0.9186 0.0000
vt 0.7844 0.9077 0.0000
vt 0.7659 0.8982 0.0000
vt 0.7740 0.8801 0.0000
vt 0.7877 0.8647 0.0000
vt 0.7906 0.8329 0.0000
vt 0.8052 0.8509 0.0000
vt 0.8024 0.8708 0.0000
vt 0.7563 0.8385 0.0000
vt 0.7647 0.8147 0.0000
vt 0.7430 0.8595 0.0000
vt 0.7605 0.7796 0.0000
vt 0.7841 0.7787 0.0000
vt 0.7990 0.8140 0.0000
vt 0.8065 0.7800 0.0000
vt 0.8259 0.8152 0.0000
vt 0.7697 0.7496 0.0000
vt 0.7902 0.7508 0.0000
vt 0.7438 0.7505 0.0000
vt 0.7266 0.7361 0.0000
vt 0.7564 0.7034 0.0000
vt 0.7711 0.7185 0.0000
vt 0.7830 0.6739 0.0000
vt 0.7855 0.6997 0.0000
vt 0.7457 0.6810 0.0000
vt 0.7819 0.6520 0.0000
vt 0.7064 0.7148 0.0000
vt 0.7274 0.6723 0.0000
vt 0.7653 0.6519 0.0000
vt 0.6860 0.7014 0.0000
vt 0.6478 0.6964 0.0000
vt 0.6422 0.6490 0.0000
vt 0.6783 0.6566 0.0000
vt 0.6338 0.6040 0.0000
vt 0.6686 0.6222 0.0000
vt 0.6023 0.6295 0.0000
vt 0.6012 0.5862 0.0000
vt 0.6127 0.6926 0.0000
vt 0.5921 0.5983 0.0000
vt 0.5919 0.6308 0.0000
vt 0.5766 0.7154 0.0000
vt 0.5585 0.6524 0.0000
vt 0.5369 0.6666 0.0000
vt 0.5451 0.7355 0.0000
vt 0.5261 0.6943 0.0000
vt 0.5061 0.7909 0.0000
vt 0.4676 0.7707 0.0000
vt 0.5117 0.7325 0.0000
vt 0.4443 0.7480 0.0000
vt 0.4826 0.7189 0.0000
vt 0.5224 0.8539 0.0000
vt 0.4828 0.8481 0.0000
vt 0.4670 0.7857 0.0000
vt 0.4525 0.8349 0.0000
vt 0.4357 0.7801 0.0000
vt 0.5630 0.8885 0.0000
vt 0.5192 0.8898 0.0000
vt 0.5002 0.8649 0.0000
vt 0.4827 0.8861 0.0000
vt 0.4792 0.8719 0.0000
vt 0.4566 0.8824 0.0000
vt 0.4568 0.8796 0.0000
vt 0.6164 0.9077 0.0000
vt 0.5994 0.9436 0.0000
vt 0.5490 0.9147 0.0000
vt 0.6639 0.9308 0.0000
vt 0.6477 0.9637 0.0000
vt 0.6337 0.9831 0.0000
vt 0.5809 0.9683 0.0000
vt 0.5106 0.9279 0.0000
vt 0.6629 0.8883 0.0000
vt 0.6808 0.9239 0.0000
vt 0.7083 0.8677 0.0000
vt 0.7240 0.9012 0.0000
vt 0.7671 0.9224 0.0000
vt 0.7267 0.9338 0.0000
vt 0.7422 0.9879 0.0000
vt 0.7387 0.9956 0.0000
vt 0.7287 0.9931 0.0000
vt 0.6998 0.9524 0.0000
vt 0.6272 0.8851 0.0000
vt 0.5916 0.8737 0.0000
vt 0.5670 0.8438 0.0000
vt 0.5492 0.7934 0.0000
vt 0.5690 0.7513 0.0000
vt 0.5931 0.7289 0.0000
vt 0.6216 0.7150 0.0000
vt 0.6473 0.7162 0.0000
vt 0.6730 0.7269 0.0000
vt 0.6890 0.7332 0.0000
vt 0.7062 0.7542 0.0000
vt 0.7170 0.7691 0.0000
vt 0.7213 0.7849 0.0000
vt 0.7275 0.8126 0.0000
vt 0.7222 0.8360 0.0000
vt 0.6531 0.8553 0.0000
vt 0.6783 0.8375 0.0000
vt 0.6211 0.8520 0.0000
vt 0.5893 0.8338 0.0000
vt 0.5710 0.7961 0.0000
vt 0.5826 0.7659 0.0000
vt 0.6050 0.7420 0.0000
vt 0.6339 0.7350 0.0000
vt 0.6632 0.7458 0.0000
vt 0.6842 0.7764 0.0000
vt 0.6886 0.8073 0.0000
vt 0.6702 0.7929 0.0000
vt 0.6546 0.8245 0.0000
vt 0.6069 0.8281 0.0000
vt 0.5859 0.7900 0.0000
vt 0.6204 0.7533 0.0000
vt 0.6517 0.7573 0.0000
vt 0.6065 0.7876 0.0000
vt 0.6187 0.8113 0.0000
vt 0.6188 0.7876 0.0000
vt 0.6229 0.7963 0.0000
vt 0.6495 0.7977 0.0000
vt 0.6349 0.7902 0.0000
vt 0.6334 0.7671 0.0000
vt 0.6310 0.7791 0.0000
vt 0.3706 0.5909 0.0000
vt 0.3625 0.5647 0.0000
vt 0.3902 0.5883 0.0000
vt 0.4105 0.6070 0.0000
vt 0.3617 0.6160 0.0000
vt 0.4408 0.5918 0.0000
vt 0.4268 0.6208 0.0000
vt 0.4294 0.5832 0.0000
vt 0.4975 0.6021 0.0000
vt 0.4914 0.6221 0.0000
vt 0.4798 0.6468 0.0000
vt 0.4143 0.6562 0.0000
vt 0.5281 0.5785 0.0000
vt 0.5188 0.6166 0.0000
vt 0.4987 0.5735 0.0000
vt 0.5487 0.6082 0.0000
vt 0.5482 0.6236 0.0000
vt 0.5232 0.6261 0.0000
vt 0.5671 0.6349 0.0000
vt 0.5730 0.6025 0.0000
vt 0.5632 0.5625 0.0000
vt 0.5676 0.5269 0.0000
vt 0.6089 0.5356 0.0000
vt 0.6036 0.5571 0.0000
vt 0.6331 0.5345 0.0000
vt 0.6245 0.5597 0.0000
vt 0.3061 0.5307 0.0000
vt 0.3213 0.5466 0.0000
vt 0.3053 0.5549 0.0000
vt 0.2939 0.5439 0.0000
vt 0.3324 0.5648 0.0000
vt 0.3377 0.5365 0.0000
vt 0.3294 0.5045 0.0000
vt 0.3171 0.5642 0.0000
vt 0.2990 0.4756 0.0000
vt 0.3315 0.4554 0.0000
vt 0.3005 0.4913 0.0000
vt 0.2986 0.4494 0.0000
vt 0.2833 0.3973 0.0000
vt 0.3215 0.4066 0.0000
vt 0.2903 0.3895 0.0000
vt 0.3274 0.3955 0.0000
vt 0.3048 0.3719 0.0000
vt 0.3473 0.3721 0.0000
vt 0.3147 0.3495 0.0000
vt 0.3681 0.3333 0.0000
vt 0.3474 0.3064 0.0000
vt 0.3609 0.2873 0.0000
vt 0.3817 0.3041 0.0000
vt 0.3434 0.2767 0.0000
vt 0.3347 0.2895 0.0000
vt 0.3284 0.2824 0.0000
vt 0.3306 0.2740 0.0000
vt 0.4057 0.2835 0.0000
vt 0.3663 0.2783 0.0000
vt 0.3849 0.2661 0.0000
vt 0.3902 0.2598 0.0000
vt 0.3941 0.2517 0.0000
vt 0.4213 0.2656 0.0000
vt 0.4503 0.2827 0.0000
vt 0.4305 0.3011 0.0000
vt 0.4116 0.3193 0.0000
vt 0.4922 0.3060 0.0000
vt 0.4565 0.3198 0.0000
vt 0.4346 0.3364 0.0000
vt 0.4040 0.3497 0.0000
vt 0.5061 0.2750 0.0000
vt 0.5527 0.2742 0.0000
vt 0.5301 0.3082 0.0000
vt 0.5173 0.2525 0.0000
vt 0.5238 0.2270 0.0000
vt 0.5470 0.2319 0.0000
vt 0.5487 0.2538 0.0000
vt 0.5303 0.1826 0.0000
vt 0.5265 0.1839 0.0000
vt 0.5899 0.2612 0.0000
vt 0.5845 0.2942 0.0000
vt 0.5756 0.3340 0.0000
vt 0.5559 0.3644 0.0000
vt 0.6170 0.3648 0.0000
vt 0.5929 0.3967 0.0000
vt 0.6302 0.3963 0.0000
vt 0.6424 0.4255 0.0000
vt 0.6071 0.4288 0.0000
vt 0.6584 0.3804 0.0000
vt 0.6568 0.3985 0.0000
vt 0.6668 0.4263 0.0000
vt 0.6776 0.3956 0.0000
vt 0.6761 0.4051 0.0000
vt 0.6793 0.3852 0.0000
vt 0.6977 0.3907 0.0000
vt 0.6816 0.4509 0.0000
vt 0.6454 0.4473 0.0000
vt 0.6143 0.4481 0.0000
vt 0.6357 0.4801 0.0000
vt 0.6824 0.4746 0.0000
vt 0.6702 0.4962 0.0000
vt 0.6372 0.5080 0.0000
vt 0.6649 0.5550 0.0000
vt 0.6633 0.6057 0.0000
vt 0.6143 0.4786 0.0000
vt 0.6163 0.5112 0.0000
vt 0.4542 0.5587 0.0000
vt 0.4102 0.5670 0.0000
vt 0.3873 0.5510 0.0000
vt 0.3660 0.5208 0.0000
vt 0.3553 0.4953 0.0000
vt 0.4288 0.5282 0.0000
vt 0.4039 0.4898 0.0000
vt 0.3504 0.4523 0.0000
vt 0.3534 0.4044 0.0000
vt 0.3700 0.3805 0.0000
vt 0.5210 0.3422 0.0000
vt 0.4960 0.3321 0.0000
vt 0.4666 0.3324 0.0000
vt 0.5740 0.5035 0.0000
vt 0.5765 0.4760 0.0000
vt 0.5781 0.4509 0.0000
vt 0.5584 0.4160 0.0000
vt 0.5362 0.3904 0.0000
vt 0.4002 0.4518 0.0000
vt 0.4022 0.4108 0.0000
vt 0.4331 0.3834 0.0000
vt 0.4540 0.3736 0.0000
vt 0.4799 0.3688 0.0000
vt 0.5062 0.3679 0.0000
vt 0.6582 0.5114 0.0000
vt 0.5240 0.4879 0.0000
vt 0.5129 0.5038 0.0000
vt 0.5080 0.5087 0.0000
vt 0.4928 0.5059 0.0000
vt 0.4730 0.4910 0.0000
vt 0.4546 0.4712 0.0000
vt 0.4511 0.4532 0.0000
vt 0.4526 0.4332 0.0000
vt 0.4671 0.4155 0.0000
vt 0.4879 0.4130 0.0000
vt 0.5078 0.4250 0.0000
vt 0.5176 0.4440 0.0000
vt 0.5231 0.4624 0.0000
vt 0.2530 0.4074 0.0000
vt 0.2658 0.4224 0.0000
vt 0.2325 0.4377 0.0000
vt 0.2214 0.4253 0.0000
vt 0.2732 0.4395 0.0000
vt 0.2419 0.4515 0.0000
vt 0.2502 0.4669 0.0000
vt 0.2092 0.4756 0.0000
vt 0.2065 0.4673 0.0000
vt 0.2762 0.4633 0.0000
vt 0.2792 0.4880 0.0000
vt 0.2475 0.4870 0.0000
vt 0.2098 0.4866 0.0000
vt 0.2437 0.5015 0.0000
vt 0.2782 0.5151 0.0000
vt 0.2629 0.5315 0.0000
vt 0.2384 0.5169 0.0000
vt 0.1718 0.4956 0.0000
vt 0.1701 0.4836 0.0000
vt 0.1365 0.4981 0.0000
vt 0.1385 0.4848 0.0000
vt 0.1101 0.4887 0.0000
vt 0.1103 0.4807 0.0000
vt 0.0773 0.4803 0.0000
vt 0.0762 0.4751 0.0000
vt 0.0528 0.4796 0.0000
vt 0.0519 0.4756 0.0000
vt 0.0308 0.4830 0.0000
vt 0.0293 0.4817 0.0000
vt 0.0187 0.4903 0.0000
vt 0.2090 0.4994 0.0000
vt 0.1728 0.5066 0.0000
vt 0.1365 0.5087 0.0000
vt 0.1087 0.4982 0.0000
vt 0.0773 0.4862 0.0000
vt 0.0524 0.4841 0.0000
vt 0.0319 0.4853 0.0000
vt 0.1654 0.4712 0.0000
vt 0.1374 0.4704 0.0000
vt 0.1092 0.4709 0.0000
vt 0.0735 0.4691 0.0000
vt 0.0487 0.4721 0.0000
vt 0.0270 0.4802 0.0000
vt 0.1986 0.4553 0.0000
vt 0.1650 0.4610 0.0000
vt 0.1357 0.4575 0.0000
vt 0.1069 0.4604 0.0000
vt 0.0707 0.4644 0.0000
vt 0.0456 0.4686 0.0000
vt 0.0252 0.4790 0.0000
vt 0.1936 0.4457 0.0000
vt 0.2085 0.5186 0.0000
vt 0.1654 0.4480 0.0000
vt 0.1717 0.5166 0.0000
vt 0.1356 0.4421 0.0000
vt 0.1346 0.5180 0.0000
vt 0.1038 0.4486 0.0000
vt 0.1059 0.5073 0.0000
vt 0.0752 0.4908 0.0000
vt 0.0681 0.4598 0.0000
vt 0.0524 0.4888 0.0000
vt 0.0423 0.4655 0.0000
vt 0.0238 0.4784 0.0000
vt 0.0312 0.4877 0.0000
vt 0.4567 0.2531 0.0000
vt 0.4523 0.2382 0.0000
vt 0.4580 0.2366 0.0000
vt 0.4625 0.2377 0.0000
vt 0.4585 0.2578 0.0000
vt 0.4669 0.2406 0.0000
vt 0.4465 0.2490 0.0000
vt 0.4480 0.2434 0.0000
vt 0.4472 0.2256 0.0000
vt 0.4559 0.2236 0.0000
vt 0.4645 0.2223 0.0000
vt 0.4386 0.2320 0.0000
vt 0.4718 0.1998 0.0000
vt 0.4548 0.2052 0.0000
vt 0.4531 0.1847 0.0000
vt 0.4764 0.1811 0.0000
vt 0.4503 0.1590 0.0000
vt 0.4793 0.1555 0.0000
vt 0.4711 0.2238 0.0000
vt 0.4806 0.2072 0.0000
vt 0.4919 0.1870 0.0000
vt 0.5050 0.1601 0.0000
vt 0.4314 0.2414 0.0000
vt 0.4414 0.2099 0.0000
vt 0.4308 0.1898 0.0000
vt 0.4187 0.1665 0.0000
vt 0.4275 0.2210 0.0000
vt 0.4047 0.2045 0.0000
vt 0.3880 0.1792 0.0000
vt 0.4093 0.2330 0.0000
vt 0.3868 0.2241 0.0000
vt 0.3628 0.2001 0.0000
vt 0.9336 0.8573 0.0000
vt 0.9375 0.8644 0.0000
vt 0.9207 0.8545 0.0000
vt 0.9212 0.8446 0.0000
vt 0.9093 0.8275 0.0000
vt 0.9027 0.8403 0.0000
vt 0.8903 0.8204 0.0000
vt 0.9037 0.8097 0.0000
vt 0.8749 0.8044 0.0000
vt 0.8954 0.7905 0.0000
vt 0.8799 0.7576 0.0000
vt 0.8460 0.7870 0.0000
vt 0.9248 0.8407 0.0000
vt 0.9180 0.8232 0.0000
vt 0.9139 0.8007 0.0000
vt 0.9138 0.7831 0.0000
vt 0.9268 0.7484 0.0000
vt 0.9301 0.8392 0.0000
vt 0.9273 0.8218 0.0000
vt 0.9314 0.8044 0.0000
vt 0.9423 0.7898 0.0000
vt 0.9667 0.7611 0.0000
vt 0.9394 0.8396 0.0000
vt 0.9391 0.8249 0.0000
vt 0.9447 0.8120 0.0000
vt 0.9602 0.8030 0.0000
vt 0.9763 0.7974 0.0000
vt 0.9199 0.8615 0.0000
vt 0.9013 0.8511 0.0000
vt 0.8825 0.8376 0.0000
vt 0.8620 0.8283 0.0000
vt 0.8426 0.8174 0.0000
vt 0.9456 0.9095 0.0000
vt 0.9548 0.9170 0.0000
vt 0.9521 0.9182 0.0000
vt 0.9424 0.9128 0.0000
vt 0.9534 0.9234 0.0000
vt 0.9498 0.9245 0.0000
vt 0.9415 0.9180 0.0000
vt 0.9490 0.9194 0.0000
vt 0.9453 0.9226 0.0000
vt 0.9491 0.9067 0.0000
vt 0.9206 0.9191 0.0000
vt 0.9212 0.9091 0.0000
vt 0.9035 0.9103 0.0000
vt 0.9027 0.9208 0.0000
vt 0.8796 0.9068 0.0000
vt 0.8787 0.9227 0.0000
vt 0.8332 0.9286 0.0000
vt 0.8342 0.9009 0.0000
vt 0.8842 0.9419 0.0000
vt 0.8409 0.9492 0.0000
vt 0.9081 0.9377 0.0000
vt 0.9282 0.9321 0.0000
vt 0.9406 0.9441 0.0000
vt 0.9352 0.9408 0.0000
vt 0.9228 0.9566 0.0000
vt 0.9158 0.9490 0.0000
vt 0.8996 0.9687 0.0000
vt 0.8926 0.9569 0.0000
vt 0.8673 0.9887 0.0000
vt 0.8509 0.9693 0.0000
vt 0.9288 0.8946 0.0000
vt 0.9238 0.9016 0.0000
vt 0.9069 0.8979 0.0000
vt 0.9114 0.8878 0.0000
vt 0.8829 0.8881 0.0000
vt 0.8903 0.8771 0.0000
vt 0.8465 0.8720 0.0000
vt 0.8597 0.8565 0.0000
vt 0.4312 0.8852 0.0000
vt 0.4304 0.8995 0.0000
vt 0.4354 0.8972 0.0000
vt 0.4327 0.9120 0.0000
vt 0.4425 0.9137 0.0000
vt 0.4425 0.9408 0.0000
vt 0.4546 0.9338 0.0000
vt 0.4543 0.9655 0.0000
vt 0.4719 0.9498 0.0000
vt 0.4765 0.9902 0.0000
vt 0.5091 0.9572 0.0000
vt 0.4397 0.8955 0.0000
vt 0.4496 0.9089 0.0000
vt 0.4622 0.9268 0.0000
vt 0.4779 0.9360 0.0000
vt 0.5000 0.9307 0.0000
vt 0.4254 0.8980 0.0000
vt 0.4248 0.9155 0.0000
vt 0.4307 0.9417 0.0000
vt 0.4389 0.9673 0.0000
vt 0.4399 0.9937 0.0000
vt 0.4217 0.8970 0.0000
vt 0.4181 0.8942 0.0000
vt 0.4170 0.9148 0.0000
vt 0.4158 0.9415 0.0000
vt 0.4139 0.9608 0.0000
vt 0.4113 0.9907 0.0000
vt 0.4087 0.9135 0.0000
vt 0.4035 0.9397 0.0000
vt 0.3927 0.9596 0.0000
vt 0.3741 0.9760 0.0000
vt 0.4505 0.1070 0.0000
vt 0.4494 0.1005 0.0000
vt 0.4568 0.0871 0.0000
vt 0.4641 0.0971 0.0000
vt 0.4352 0.1032 0.0000
vt 0.4373 0.0949 0.0000
vt 0.4464 0.0887 0.0000
vt 0.4683 0.1079 0.0000
vt 0.4702 0.0619 0.0000
vt 0.4926 0.0780 0.0000
vt 0.4795 0.0188 0.0000
vt 0.5302 0.0524 0.0000
vt 0.4449 0.0627 0.0000
vt 0.4372 0.0181 0.0000
vt 0.4980 0.1068 0.0000
vt 0.5298 0.1032 0.0000
vt 0.4028 0.0954 0.0000
vt 0.4196 0.0730 0.0000
vt 0.3784 0.0961 0.0000
vt 0.3975 0.0481 0.0000
vt 0.7737 0.0356 0.0000
vt 0.8001 0.0339 0.0000
vt 0.8075 0.0686 0.0000
vt 0.7810 0.0861 0.0000
vt 0.8206 0.0284 0.0000
vt 0.8431 0.0960 0.0000
vt 0.8591 0.0216 0.0000
vt 0.8700 0.0928 0.0000
vt 0.8988 0.0176 0.0000
vt 0.9052 0.0865 0.0000
vt 0.9426 0.0827 0.0000
vt 0.9421 0.0163 0.0000
vt 0.9744 0.0152 0.0000
vt 0.9731 0.0819 0.0000
vt 0.5859 0.1075 0.0000
vt 0.6178 0.1667 0.0000
vt 0.5852 0.1834 0.0000
vt 0.5513 0.1264 0.0000
vt 0.6517 0.1484 0.0000
vt 0.6239 0.0897 0.0000
vt 0.6663 0.0700 0.0000
vt 0.6862 0.1311 0.0000
vt 0.6839 0.0642 0.0000
vt 0.7027 0.1273 0.0000
vt 0.7066 0.0557 0.0000
vt 0.7290 0.1228 0.0000
vt 0.7370 0.0453 0.0000
vt 0.7610 0.1055 0.0000
vt 0.7162 0.1428 0.0000
vt 0.7398 0.1540 0.0000
vt 0.7205 0.1631 0.0000
vt 0.7723 0.1381 0.0000
vt 0.8015 0.1313 0.0000
vt 0.8771 0.1237 0.0000
vt 0.8296 0.1286 0.0000
vt 0.9056 0.1151 0.0000
vt 0.9301 0.1270 0.0000
vt 0.9450 0.1160 0.0000
vt 0.6362 0.2007 0.0000
vt 0.6082 0.2162 0.0000
vt 0.6915 0.1529 0.0000
vt 0.7059 0.1671 0.0000
vt 0.6683 0.1823 0.0000
vt 0.9743 0.1231 0.0000
vt 0.9524 0.1353 0.0000
vt 0.9771 0.1597 0.0000
vt 0.9447 0.1511 0.0000
vt 0.6579 0.2365 0.0000
vt 0.6306 0.2435 0.0000
vt 0.6880 0.2217 0.0000
vt 0.7273 0.2111 0.0000
vt 0.7606 0.1979 0.0000
vt 0.7896 0.1874 0.0000
vt 0.8128 0.1794 0.0000
vt 0.8459 0.1834 0.0000
vt 0.8796 0.1735 0.0000
vt 0.9057 0.1642 0.0000
vt 0.9361 0.1480 0.0000
vt 0.9372 0.2370 0.0000
vt 0.9139 0.2430 0.0000
vt 0.9721 0.2350 0.0000
vt 0.6701 0.3069 0.0000
vt 0.6895 0.2996 0.0000
vt 0.7164 0.2859 0.0000
vt 0.7563 0.2865 0.0000
vt 0.7793 0.2682 0.0000
vt 0.8082 0.2626 0.0000
vt 0.8341 0.2551 0.0000
vt 0.8603 0.2521 0.0000
vt 0.8907 0.2502 0.0000
vt 0.9734 0.3362 0.0000
vt 0.9348 0.3356 0.0000
vt 0.7219 0.3941 0.0000
vt 0.7562 0.3872 0.0000
vt 0.7858 0.3760 0.0000
vt 0.8135 0.3651 0.0000
vt 0.8348 0.3564 0.0000
vt 0.8666 0.3465 0.0000
vt 0.9037 0.3229 0.0000
vt 0.8552 0.4436 0.0000
vt 0.8464 0.4555 0.0000
vt 0.8786 0.4453 0.0000
vt 0.9099 0.4376 0.0000
vt 0.9449 0.4317 0.0000
vt 0.9729 0.4293 0.0000
vt 0.7905 0.4641 0.0000
vt 0.7570 0.4794 0.0000
vt 0.8204 0.4668 0.0000
vt 0.8617 0.4788 0.0000
vt 0.8709 0.4652 0.0000
vt 0.8876 0.5072 0.0000
vt 0.8644 0.5154 0.0000
vt 0.8364 0.5214 0.0000
vt 0.8082 0.5244 0.0000
vt 0.7724 0.5296 0.0000
vt 0.9804 0.4850 0.0000
vt 0.9519 0.4940 0.0000
vt 0.9174 0.5054 0.0000
vt 0.9111 0.5212 0.0000
vt 0.9207 0.5435 0.0000
vt 0.8923 0.5477 0.0000
vt 0.8703 0.5580 0.0000
vt 0.8503 0.5554 0.0000
vt 0.8284 0.5516 0.0000
vt 0.8154 0.5493 0.0000
vt 0.8050 0.5703 0.0000
vt 0.7778 0.5663 0.0000
vt 0.9839 0.5251 0.0000
vt 0.9595 0.5281 0.0000
vt 0.9373 0.5239 0.0000
vt 0.9474 0.5723 0.0000
vt 0.9320 0.5476 0.0000
vt 0.9813 0.5687 0.0000
vt 0.8171 0.6054 0.0000
vt 0.7872 0.6069 0.0000
vt 0.8226 0.5714 0.0000
vt 0.8265 0.5734 0.0000
vt 0.8386 0.6032 0.0000
vt 0.8403 0.5724 0.0000
vt 0.8521 0.5822 0.0000
vt 0.8754 0.5852 0.0000
vt 0.9014 0.5784 0.0000
vt 0.9197 0.5719 0.0000
vt 0.9532 0.6448 0.0000
vt 0.9303 0.6475 0.0000
vt 0.9851 0.6400 0.0000
vt 0.8317 0.6668 0.0000
vt 0.8103 0.6738 0.0000
vt 0.8571 0.6597 0.0000
vt 0.8853 0.6586 0.0000
vt 0.9053 0.6517 0.0000
vt 0.8704 0.7431 0.0000
vt 0.8917 0.7368 0.0000
vt 0.9176 0.7323 0.0000
vt 0.9413 0.7245 0.0000
vt 0.9674 0.7202 0.0000
vt 0.9856 0.7200 0.0000
vt 0.8330 0.7502 0.0000
vt 0.8544 0.7459 0.0000
vt 0.0679 0.8615 0.0000
vt 0.0456 0.8458 0.0000
vt 0.0884 0.8282 0.0000
vt 0.0928 0.8470 0.0000
vt 0.1248 0.7913 0.0000
vt 0.1333 0.8228 0.0000
vt 0.0805 0.9104 0.0000
vt 0.0616 0.9076 0.0000
vt 0.0459 0.8896 0.0000
vt 0.1237 0.8899 0.0000
vt 0.0843 0.9245 0.0000
vt 0.0964 0.9406 0.0000
vt 0.0833 0.9379 0.0000
vt 0.0815 0.9320 0.0000
vt 0.1525 0.9188 0.0000
vt 0.1848 0.8984 0.0000
vt 0.2256 0.9123 0.0000
vt 0.1948 0.9420 0.0000
vt 0.1528 0.9443 0.0000
vt 0.1682 0.9572 0.0000
vt 0.1423 0.9681 0.0000
vt 0.1593 0.8662 0.0000
vt 0.0855 0.7503 0.0000
vt 0.0998 0.7249 0.0000
vt 0.1291 0.7590 0.0000
vt 0.0784 0.7748 0.0000
vt 0.0760 0.7072 0.0000
vt 0.0799 0.6991 0.0000
vt 0.0519 0.7537 0.0000
vt 0.0634 0.7302 0.0000
vt 0.0143 0.7247 0.0000
vt 0.1367 0.6912 0.0000
vt 0.1092 0.6683 0.0000
vt 0.0875 0.6550 0.0000
vt 0.0680 0.6763 0.0000
vt 0.1536 0.6464 0.0000
vt 0.1643 0.5955 0.0000
vt 0.1952 0.5984 0.0000
vt 0.1830 0.6458 0.0000
vt 0.1628 0.6837 0.0000
vt 0.1236 0.6477 0.0000
vt 0.1850 0.6780 0.0000
vt 0.1296 0.5878 0.0000
vt 0.2218 0.5989 0.0000
vt 0.2082 0.6469 0.0000
vt 0.2602 0.6114 0.0000
vt 0.2363 0.6495 0.0000
vt 0.2036 0.6749 0.0000
vt 0.2283 0.6734 0.0000
vt 0.2824 0.6152 0.0000
vt 0.3028 0.6158 0.0000
vt 0.2895 0.6599 0.0000
vt 0.2644 0.6549 0.0000
vt 0.2807 0.6780 0.0000
vt 0.2570 0.6751 0.0000
vt 0.2881 0.5920 0.0000
vt 0.2956 0.5903 0.0000
vt 0.3023 0.5930 0.0000
vt 0.3252 0.6095 0.0000
vt 0.3415 0.6220 0.0000
vt 0.3260 0.6730 0.0000
vt 0.3492 0.6652 0.0000
vt 0.3808 0.6361 0.0000
vt 0.3879 0.6899 0.0000
vt 0.3466 0.7081 0.0000
vt 0.3585 0.7828 0.0000
vt 0.3532 0.7462 0.0000
vt 0.3958 0.7393 0.0000
vt 0.3981 0.7831 0.0000
vt 0.3070 0.6970 0.0000
vt 0.3225 0.7210 0.0000
vt 0.3343 0.7849 0.0000
vt 0.3298 0.7495 0.0000
vt 0.4124 0.7805 0.0000
vt 0.4243 0.7680 0.0000
vt 0.4191 0.7094 0.0000
vt 0.4255 0.7366 0.0000
vt 0.4005 0.8360 0.0000
vt 0.3542 0.8264 0.0000
vt 0.4039 0.8804 0.0000
vt 0.3466 0.8658 0.0000
vt 0.3233 0.8207 0.0000
vt 0.3133 0.8459 0.0000
vt 0.3515 0.9213 0.0000
vt 0.3212 0.8936 0.0000
vt 0.3796 0.8901 0.0000
vt 0.2957 0.8670 0.0000
vt 0.2673 0.9163 0.0000
vt 0.3033 0.9477 0.0000
vt 0.2624 0.8837 0.0000
vt 0.2656 0.9524 0.0000
vt 0.2349 0.9545 0.0000
vt 0.2570 0.9838 0.0000
vt 0.2311 0.9890 0.0000
vt 0.3746 0.9532 0.0000
vt 0.3193 0.9579 0.0000
vt 0.3928 0.8991 0.0000
vt 0.3694 0.9235 0.0000
vt 0.2284 0.8824 0.0000
vt 0.1661 0.7270 0.0000
vt 0.1927 0.7151 0.0000
vt 0.2301 0.7094 0.0000
vt 0.2623 0.7039 0.0000
vt 0.2896 0.7189 0.0000
vt 0.3092 0.7353 0.0000
vt 0.1955 0.8681 0.0000
vt 0.1741 0.8457 0.0000
vt 0.1547 0.8162 0.0000
vt 0.1482 0.7757 0.0000
vt 0.1722 0.7439 0.0000
vt 0.1910 0.7597 0.0000
vt 0.2063 0.7469 0.0000
vt 0.2319 0.7395 0.0000
vt 0.2343 0.7700 0.0000
vt 0.2551 0.7377 0.0000
vt 0.2455 0.7701 0.0000
vt 0.2757 0.7428 0.0000
vt 0.1808 0.7846 0.0000
vt 0.1821 0.8086 0.0000
vt 0.1935 0.8284 0.0000
vt 0.2082 0.8429 0.0000
vt 0.2292 0.8527 0.0000
vt 0.2522 0.8520 0.0000
vt 0.2727 0.8420 0.0000
vt 0.2866 0.8276 0.0000
vt 0.2963 0.8096 0.0000
vt 0.3017 0.7903 0.0000
vt 0.3003 0.7691 0.0000
vt 0.2904 0.7550 0.0000
vt 0.2553 0.7718 0.0000
vt 0.2610 0.7756 0.0000
vt 0.2650 0.7836 0.0000
vt 0.2667 0.7906 0.0000
vt 0.2634 0.8003 0.0000
vt 0.2590 0.8073 0.0000
vt 0.2523 0.8131 0.0000
vt 0.2439 0.8177 0.0000
vt 0.2335 0.8182 0.0000
vt 0.2252 0.8136 0.0000
vt 0.2197 0.8087 0.0000
vt 0.2136 0.8005 0.0000
vt 0.2120 0.7920 0.0000
vt 0.2152 0.7826 0.0000
vt 0.2220 0.7740 0.0000
vt 0.4025 0.6894 0.0000
vt 0.3279 0.2453 0.0000
vt 0.3516 0.2305 0.0000
vt 0.2965 0.1942 0.0000
vt 0.2713 0.2342 0.0000
vt 0.3050 0.2688 0.0000
vt 0.2921 0.2772 0.0000
vt 0.2336 0.2511 0.0000
vt 0.2402 0.2896 0.0000
vt 0.2060 0.2950 0.0000
vt 0.2098 0.2604 0.0000
vt 0.2493 0.3271 0.0000
vt 0.2998 0.3072 0.0000
vt 0.1960 0.3481 0.0000
vt 0.2009 0.3446 0.0000
vt 0.2274 0.3587 0.0000
vt 0.2456 0.3757 0.0000
vt 0.1469 0.3728 0.0000
vt 0.1664 0.3746 0.0000
vt 0.1806 0.3698 0.0000
vt 0.1500 0.3380 0.0000
vt 0.2757 0.3636 0.0000
vt 0.1603 0.2990 0.0000
vt 0.1772 0.2601 0.0000
vt 0.1338 0.3345 0.0000
vt 0.1451 0.2998 0.0000
vt 0.1630 0.2615 0.0000
vt 0.1401 0.2573 0.0000
vt 0.1178 0.2849 0.0000
vt 0.0987 0.3046 0.0000
vt 0.1152 0.3374 0.0000
vt 0.0986 0.3288 0.0000
vt 0.0618 0.3125 0.0000
vt 0.0865 0.3135 0.0000
vt 0.0646 0.2676 0.0000
vt 0.0399 0.3033 0.0000
vt 0.0856 0.2524 0.0000
vt 0.0513 0.2213 0.0000
vt 0.0278 0.2457 0.0000
vt 0.0332 0.2202 0.0000
vt 0.0442 0.2039 0.0000
vt 0.0181 0.2059 0.0000
vt 0.0216 0.2249 0.0000
vt 0.0943 0.1175 0.0000
vt 0.1250 0.0943 0.0000
vt 0.1074 0.0504 0.0000
vt 0.0853 0.0844 0.0000
vt 0.0574 0.1870 0.0000
vt 0.0260 0.1916 0.0000
vt 0.0507 0.1178 0.0000
vt 0.0480 0.1539 0.0000
vt 0.0658 0.1524 0.0000
vt 0.0195 0.1365 0.0000
vt 0.0256 0.1540 0.0000
vt 0.0787 0.0362 0.0000
vt 0.0663 0.0594 0.0000
vt 0.0486 0.0297 0.0000
vt 0.0456 0.0428 0.0000
vt 0.0235 0.0299 0.0000
vt 0.1260 0.0347 0.0000
vt 0.0939 0.0137 0.0000
vt 0.1534 0.0563 0.0000
vt 0.1692 0.0797 0.0000
vt 0.1916 0.0365 0.0000
vt 0.2201 0.0594 0.0000
vt 0.2296 0.0030 0.0000
vt 0.2480 0.0291 0.0000
vt 0.2674 0.0430 0.0000
vt 0.2514 0.0723 0.0000
vt 0.3069 0.1087 0.0000
vt 0.3229 0.0758 0.0000
vt 0.3094 0.0505 0.0000
vt 0.2894 0.0944 0.0000
vt 0.2644 0.0779 0.0000
vt 0.2829 0.0485 0.0000
vt 0.2817 0.1352 0.0000
vt 0.3145 0.1167 0.0000
vt 0.3555 0.1415 0.0000
vt 0.3268 0.1169 0.0000
vt 0.3302 0.1498 0.0000
vt 0.3622 0.1235 0.0000
vt 0.3944 0.1422 0.0000
vt 0.3290 0.1750 0.0000
vt 0.3653 0.1599 0.0000
vt 0.3912 0.1480 0.0000
vt 0.2874 0.1676 0.0000
vt 0.2632 0.1301 0.0000
vt 0.2461 0.1122 0.0000
vt 0.2151 0.1142 0.0000
vt 0.1769 0.1181 0.0000
vt 0.1465 0.1313 0.0000
vt 0.1250 0.1503 0.0000
vt 0.1091 0.1704 0.0000
vt 0.1002 0.1961 0.0000
vt 0.0786 0.2259 0.0000
vt 0.1128 0.2300 0.0000
vt 0.1649 0.1712 0.0000
vt 0.1790 0.1607 0.0000
vt 0.1956 0.1584 0.0000
vt 0.2108 0.1631 0.0000
vt 0.2230 0.1736 0.0000
vt 0.2289 0.1830 0.0000
vt 0.2280 0.1961 0.0000
vt 0.2203 0.2092 0.0000
vt 0.2049 0.2181 0.0000
vt 0.1855 0.2179 0.0000
vt 0.1694 0.2123 0.0000
vt 0.1596 0.1995 0.0000
vt 0.1572 0.1853 0.0000
# 873 texture coords

g treeSection1_tree2_low
s 1
f 1/1/1 2/2/2 3/3/3 4/4/4 
f 5/5/5 6/6/6 4/4/4 3/3/3 
f 7/7/7 8/8/8 4/4/4 6/6/6 
f 4/4/4 8/8/8 9/9/9 1/1/1 
f 9/9/9 10/10/10 11/11/11 12/12/12 
f 12/12/12 1/1/1 9/9/9 
f 10/10/10 9/9/9 13/13/13 14/14/14 
f 8/8/8 7/7/7 15/15/15 
f 13/13/13 9/9/9 8/8/8 15/15/15 
f 14/14/14 16/16/16 17/17/17 18/18/18 
f 19/19/19 20/20/20 18/18/18 17/17/17 
f 17/17/17 21/21/21 22/22/22 19/19/19 
f 21/21/21 17/17/17 16/16/16 23/23/23 
f 23/23/23 24/24/24 25/25/25 26/26/26 
f 25/25/25 27/27/27 28/28/28 26/26/26 
f 27/27/27 25/25/25 29/29/29 30/30/30 
f 25/25/25 24/24/24 31/31/31 29/29/29 
f 29/29/29 32/32/32 33/33/33 30/30/30 
f 31/31/31 34/34/34 32/32/32 29/29/29 
f 35/35/35 36/36/36 37/37/37 34/34/34 
f 36/36/36 38/38/38 39/39/39 37/37/37 
f 38/38/38 36/36/36 40/40/40 41/41/41 
f 36/36/36 35/35/35 42/42/42 40/40/40 
f 40/40/40 43/43/43 41/41/41 
f 40/40/40 42/42/42 44/44/44 
f 42/42/42 45/45/45 46/46/46 44/44/44 
f 47/47/47 46/46/46 45/45/45 
f 45/45/45 48/48/48 49/49/49 47/47/47 
f 50/50/50 51/51/51 52/52/52 48/48/48 
f 51/51/51 53/53/53 54/54/54 52/52/52 
f 50/50/50 55/55/55 56/56/56 57/57/57 
f 58/58/58 59/59/59 57/57/57 56/56/56 
f 55/55/55 60/60/60 61/61/61 62/62/62 
f 63/63/63 64/64/64 62/62/62 61/61/61 
f 65/65/65 66/66/66 64/64/64 63/63/63 
f 60/60/60 67/67/67 68/68/68 69/69/69 
f 68/68/68 67/67/67 70/70/70 71/71/71 
f 72/72/72 73/73/73 68/68/68 71/71/71 
f 73/73/73 74/74/74 69/69/69 68/68/68 
f 70/70/70 75/75/75 76/76/76 
f 76/76/76 75/75/75 77/77/77 78/78/78 
f 78/78/78 77/77/77 15/15/15 7/7/7 
f 79/79/79 80/80/80 78/78/78 7/7/7 
f 80/80/80 79/79/79 81/81/81 82/82/82 
f 82/82/82 83/83/83 84/84/84 80/80/80 
f 76/76/76 78/78/78 80/80/80 84/84/84 
f 75/75/75 70/70/70 67/67/67 85/85/85 
f 67/67/67 60/60/60 86/86/86 85/85/85 
f 60/60/60 55/55/55 87/87/87 86/86/86 
f 55/55/55 50/50/50 88/88/88 87/87/87 
f 88/88/88 50/50/50 48/48/48 89/89/89 
f 89/89/89 48/48/48 45/45/45 90/90/90 
f 45/45/45 42/42/42 91/91/91 90/90/90 
f 91/91/91 42/42/42 35/35/35 92/92/92 
f 92/92/92 35/35/35 34/34/34 93/93/93 
f 34/34/34 31/31/31 94/94/94 93/93/93 
f 31/31/31 24/24/24 95/95/95 94/94/94 
f 24/24/24 23/23/23 96/96/96 95/95/95 
f 23/23/23 16/16/16 97/97/97 96/96/96 
f 16/16/16 14/14/14 98/98/98 97/97/97 
f 98/98/98 14/14/14 13/13/13 
f 13/13/13 15/15/15 99/99/99 98/98/98 
f 99/99/99 15/15/15 77/77/77 
f 100/100/100 101/101/101 77/77/77 75/75/75 
f 100/100/100 75/75/75 85/85/85 102/102/102 
f 102/102/102 85/85/85 86/86/86 
f 86/86/86 87/87/87 103/103/103 102/102/102 
f 87/87/87 88/88/88 104/104/104 103/103/103 
f 89/89/89 105/105/105 104/104/104 88/88/88 
f 90/90/90 106/106/106 105/105/105 89/89/89 
f 91/91/91 107/107/107 106/106/106 90/90/90 
f 91/91/91 92/92/92 107/107/107 
f 93/93/93 108/108/108 107/107/107 92/92/92 
f 93/93/93 94/94/94 108/108/108 
f 94/94/94 95/95/95 109/109/109 108/108/108 
f 95/95/95 96/96/96 109/109/109 
f 109/109/109 96/96/96 97/97/97 
f 97/97/97 98/98/98 110/110/110 109/109/109 
f 110/110/110 98/98/98 99/99/99 
f 99/99/99 77/77/77 101/101/101 110/110/110 
f 109/109/109 110/110/110 111/111/111 
f 110/110/110 101/101/101 112/112/112 111/111/111 
f 112/112/112 101/101/101 100/100/100 
f 100/100/100 102/102/102 113/113/113 112/112/112 
f 113/113/113 102/102/102 103/103/103 
f 103/103/103 104/104/104 114/114/114 113/113/113 
f 114/114/114 104/104/104 105/105/105 
f 105/105/105 106/106/106 115/115/115 114/114/114 
f 115/115/115 106/106/106 107/107/107 
f 115/115/115 107/107/107 108/108/108 116/116/116 
f 116/116/116 108/108/108 109/109/109 111/111/111 
f 114/114/114 117/117/117 118/118/118 113/113/113 
f 117/117/117 119/119/119 120/120/120 118/118/118 
f 118/118/118 112/112/112 113/113/113 
f 111/111/111 112/112/112 118/118/118 121/121/121 
f 120/120/120 122/122/122 121/121/121 118/118/118 
f 117/117/117 114/114/114 115/115/115 123/123/123 
f 123/123/123 115/115/115 116/116/116 
f 119/119/119 117/117/117 123/123/123 124/124/124 
f 123/123/123 116/116/116 111/111/111 121/121/121 
f 124/124/124 122/122/122 120/120/120 119/119/119 
f 122/122/122 124/124/124 123/123/123 121/121/121 
f 125/125/125 126/126/126 127/127/127 
f 128/128/128 129/129/129 125/125/125 127/127/127 
f 130/130/130 131/131/131 128/128/128 132/132/132 
f 130/130/130 133/133/133 134/134/134 131/131/131 
f 134/134/134 135/135/135 136/136/136 131/131/131 
f 137/137/137 138/138/138 133/133/133 139/139/139 
f 140/140/140 141/141/141 142/142/142 138/138/138 
f 143/143/143 141/141/141 140/140/140 144/144/144 
f 137/137/137 140/140/140 138/138/138 
f 140/140/140 137/137/137 145/145/145 144/144/144 
f 146/146/146 147/147/147 148/148/148 145/145/145 
f 148/148/148 147/147/147 149/149/149 150/150/150 
f 151/151/151 152/152/152 153/153/153 154/154/154 
f 155/155/155 152/152/152 156/156/156 126/126/126 
f 151/151/151 157/157/157 156/156/156 152/152/152 
f 153/153/153 152/152/152 155/155/155 158/158/158 
f 159/159/159 160/160/160 157/157/157 161/161/161 
f 160/160/160 162/162/162 163/163/163 164/164/164 
f 163/163/163 165/165/165 166/166/166 164/164/164 
f 165/165/165 167/167/167 168/168/168 166/166/166 
f 168/168/168 167/167/167 169/169/169 170/170/170 
f 170/170/170 171/171/171 172/172/172 173/173/173 
f 174/174/174 172/172/172 171/171/171 175/175/175 
f 176/176/176 177/177/177 174/174/174 175/175/175 
f 178/178/178 173/173/173 179/179/179 180/180/180 
f 181/181/181 182/182/182 183/183/183 
f 172/172/172 179/179/179 173/173/173 
f 181/181/181 183/183/183 178/178/178 180/180/180 
f 184/184/184 185/185/185 178/178/178 183/183/183 
f 178/178/178 185/185/185 186/186/186 173/173/173 
f 187/187/187 188/188/188 185/185/185 184/184/184 
f 185/185/185 188/188/188 189/189/189 186/186/186 
f 190/190/190 170/170/170 173/173/173 186/186/186 
f 190/190/190 186/186/186 189/189/189 
f 191/191/191 192/192/192 193/193/193 187/187/187 
f 194/194/194 195/195/195 196/196/196 197/197/197 
f 198/198/198 196/196/196 195/195/195 199/199/199 
f 191/191/191 194/194/194 197/197/197 192/192/192 
f 192/192/192 200/200/200 201/201/201 
f 193/193/193 192/192/192 201/201/201 202/202/202 
f 203/203/203 202/202/202 204/204/204 205/205/205 
f 204/204/204 206/206/206 205/205/205 
f 206/206/206 207/207/207 208/208/208 205/205/205 
f 209/209/209 210/210/210 206/206/206 204/204/204 
f 210/210/210 211/211/211 207/207/207 206/206/206 
f 212/212/212 213/213/213 211/211/211 210/210/210 
f 209/209/209 214/214/214 212/212/212 210/210/210 
f 214/214/214 215/215/215 212/212/212 
f 213/213/213 212/212/212 215/215/215 
f 211/211/211 216/216/216 217/217/217 207/207/207 
f 207/207/207 217/217/217 218/218/218 208/208/208 
f 219/219/219 217/217/217 216/216/216 220/220/220 
f 219/219/219 220/220/220 221/221/221 222/222/222 
f 223/223/223 224/224/224 150/150/150 149/149/149 
f 225/225/225 218/218/218 217/217/217 219/219/219 
f 222/222/222 226/226/226 225/225/225 219/219/219 
f 139/139/139 133/133/133 130/130/130 227/227/227 
f 127/127/127 228/228/228 132/132/132 128/128/128 
f 127/127/127 126/126/126 229/229/229 228/228/228 
f 230/230/230 229/229/229 126/126/126 156/156/156 
f 157/157/157 231/231/231 230/230/230 156/156/156 
f 227/227/227 130/130/130 132/132/132 
f 228/228/228 232/232/232 227/227/227 132/132/132 
f 228/228/228 229/229/229 232/232/232 
f 232/232/232 229/229/229 230/230/230 233/233/233 
f 231/231/231 157/157/157 160/160/160 234/234/234 
f 160/160/160 164/164/164 235/235/235 234/234/234 
f 235/235/235 164/164/164 166/166/166 
f 166/166/166 168/168/168 236/236/236 235/235/235 
f 170/170/170 190/190/190 236/236/236 168/168/168 
f 202/202/202 203/203/203 237/237/237 193/193/193 
f 238/238/238 187/187/187 193/193/193 237/237/237 
f 188/188/188 187/187/187 238/238/238 239/239/239 
f 189/189/189 188/188/188 239/239/239 
f 240/240/240 241/241/241 225/225/225 226/226/226 
f 242/242/242 218/218/218 225/225/225 241/241/241 
f 242/242/242 208/208/208 218/218/218 
f 242/242/242 243/243/243 205/205/205 208/208/208 
f 244/244/244 203/203/203 205/205/205 243/243/243 
f 233/233/233 230/230/230 231/231/231 
f 234/234/234 245/245/245 233/233/233 231/231/231 
f 245/245/245 234/234/234 235/235/235 246/246/246 
f 246/246/246 235/235/235 236/236/236 
f 247/247/247 246/246/246 236/236/236 190/190/190 
f 247/247/247 190/190/190 189/189/189 248/248/248 
f 239/239/239 249/249/249 248/248/248 189/189/189 
f 239/239/239 238/238/238 250/250/250 249/249/249 
f 238/238/238 237/237/237 250/250/250 
f 250/250/250 237/237/237 203/203/203 244/244/244 
f 223/223/223 149/149/149 222/222/222 251/251/251 
f 147/147/147 226/226/226 222/222/222 149/149/149 
f 147/147/147 146/146/146 240/240/240 226/226/226 
f 146/146/146 252/252/252 240/240/240 
f 145/145/145 253/253/253 252/252/252 146/146/146 
f 145/145/145 137/137/137 254/254/254 253/253/253 
f 254/254/254 137/137/137 139/139/139 
f 255/255/255 254/254/254 139/139/139 227/227/227 
f 232/232/232 256/256/256 255/255/255 227/227/227 
f 256/256/256 232/232/232 233/233/233 257/257/257 
f 245/245/245 258/258/258 257/257/257 233/233/233 
f 245/245/245 246/246/246 259/259/259 258/258/258 
f 259/259/259 246/246/246 247/247/247 260/260/260 
f 247/247/247 248/248/248 260/260/260 
f 261/261/261 260/260/260 248/248/248 249/249/249 
f 249/249/249 250/250/250 261/261/261 
f 244/244/244 262/262/262 261/261/261 250/250/250 
f 244/244/244 243/243/243 263/263/263 262/262/262 
f 264/264/264 263/263/263 243/243/243 242/242/242 
f 242/242/242 241/241/241 264/264/264 
f 264/264/264 241/241/241 240/240/240 252/252/252 
f 265/265/265 266/266/266 267/267/267 268/268/268 
f 266/266/266 269/269/269 270/270/270 267/267/267 
f 270/270/270 271/271/271 272/272/272 273/273/273 
f 271/271/271 270/270/270 269/269/269 274/274/274 
f 271/271/271 274/274/274 275/275/275 276/276/276 
f 272/272/272 271/271/271 276/276/276 277/277/277 
f 278/278/278 276/276/276 275/275/275 279/279/279 
f 265/280/265 268/281/268 278/278/278 279/279/279 
f 272/272/272 277/277/277 280/282/280 281/283/281 
f 281/283/281 280/282/280 282/284/282 283/285/283 
f 283/285/283 282/284/282 284/286/284 285/287/285 
f 285/287/285 284/286/284 286/288/286 287/289/287 
f 286/288/286 288/290/288 289/291/289 287/289/287 
f 289/291/289 288/290/288 290/292/290 291/293/291 
f 291/293/291 290/292/290 292/294/292 
f 277/277/277 276/276/276 278/278/278 293/295/293 
f 293/295/293 294/296/294 280/282/280 277/277/277 
f 282/284/282 280/282/280 294/296/294 295/297/295 
f 282/284/282 295/297/295 296/298/296 284/286/284 
f 286/288/286 284/286/284 296/298/296 297/299/297 
f 298/300/298 288/290/288 286/288/286 297/299/297 
f 299/301/299 290/292/290 288/290/288 298/300/298 
f 292/294/292 290/292/290 299/301/299 
f 273/273/273 272/272/272 281/283/281 300/302/300 
f 300/302/300 281/283/281 283/285/283 301/303/301 
f 301/303/301 283/285/283 285/287/285 302/304/302 
f 287/289/287 303/305/303 302/304/302 285/287/285 
f 289/291/289 304/306/304 303/305/303 287/289/287 
f 291/293/291 305/307/305 304/306/304 289/291/289 
f 292/294/292 305/307/305 291/293/291 
f 267/267/267 270/270/270 273/273/273 306/308/306 
f 300/302/300 307/309/307 306/308/306 273/273/273 
f 307/309/307 300/302/300 301/303/301 308/310/308 
f 308/310/308 301/303/301 302/304/302 309/311/309 
f 309/311/309 302/304/302 303/305/303 310/312/310 
f 304/306/304 311/313/311 310/312/310 303/305/303 
f 305/307/305 312/314/312 311/313/311 304/306/304 
f 292/294/292 312/314/312 305/307/305 
f 268/268/268 267/267/267 306/308/306 313/315/313 
f 293/295/293 278/278/278 268/281/268 313/316/313 
f 306/308/306 307/309/307 314/317/314 313/315/313 
f 293/295/293 313/316/313 314/318/314 294/296/294 
f 308/310/308 315/319/315 314/317/314 307/309/307 
f 295/297/295 294/296/294 314/318/314 315/320/315 
f 315/319/315 308/310/308 309/311/309 316/321/316 
f 295/297/295 315/320/315 316/322/316 296/298/296 
f 317/323/317 297/299/297 296/298/296 316/322/316 
f 310/312/310 317/324/317 316/321/316 309/311/309 
f 317/323/317 318/325/318 298/300/298 297/299/297 
f 311/313/311 318/326/318 317/324/317 310/312/310 
f 312/314/312 319/327/319 318/326/318 311/313/311 
f 299/301/299 298/300/298 318/325/318 319/328/319 
f 299/301/299 319/328/319 292/294/292 
f 312/314/312 292/294/292 319/327/319 
f 320/329/320 321/330/321 322/331/322 
f 320/329/320 322/331/322 323/332/323 324/333/324 
f 324/333/324 323/332/323 325/334/325 
f 320/329/320 324/333/324 325/335/325 326/336/326 
f 320/329/320 326/336/326 321/330/321 
f 322/331/322 321/330/321 327/337/327 328/338/328 
f 322/331/322 328/338/328 329/339/329 323/332/323 
f 327/337/327 321/330/321 326/336/326 330/340/330 
f 331/341/331 329/339/329 328/338/328 332/342/332 
f 332/342/332 333/343/333 334/344/334 331/341/331 
f 333/343/333 335/345/335 336/346/336 334/344/334 
f 329/339/329 337/347/337 325/334/325 323/332/323 
f 329/339/329 331/341/331 338/348/338 337/347/337 
f 339/349/339 338/348/338 331/341/331 334/344/334 
f 334/344/334 336/346/336 340/350/340 339/349/339 
f 330/340/330 326/336/326 325/335/325 337/351/337 
f 332/342/332 328/338/328 327/337/327 341/352/341 
f 333/343/333 332/342/332 341/352/341 342/353/342 
f 342/353/342 343/354/343 335/345/335 333/343/333 
f 341/352/341 327/337/327 330/340/330 344/355/344 
f 342/353/342 341/352/341 344/355/344 345/356/345 
f 342/353/342 345/356/345 346/357/346 343/354/343 
f 337/351/337 338/358/338 344/355/344 330/340/330 
f 339/359/339 345/356/345 344/355/344 338/358/338 
f 345/356/345 339/359/339 340/360/340 346/357/346 
f 347/361/347 348/362/348 349/363/349 350/364/350 
f 351/365/351 350/364/350 349/363/349 352/366/352 
f 353/367/353 354/368/354 351/365/351 352/366/352 
f 354/368/354 353/367/353 355/369/355 356/370/356 
f 357/371/357 356/370/356 355/369/355 358/372/358 
f 347/361/347 350/364/350 359/373/359 
f 360/374/360 359/373/359 350/364/350 351/365/351 
f 354/368/354 361/375/361 360/374/360 351/365/351 
f 356/370/356 362/376/362 361/375/361 354/368/354 
f 357/371/357 363/377/363 362/376/362 356/370/356 
f 347/361/347 359/373/359 364/378/364 
f 359/373/359 360/374/360 365/379/365 364/378/364 
f 365/379/365 360/374/360 361/375/361 366/380/366 
f 362/376/362 367/381/367 366/380/366 361/375/361 
f 362/376/362 363/377/363 368/382/368 367/381/367 
f 348/362/348 347/361/347 364/378/364 369/383/369 
f 365/379/365 370/384/370 369/383/369 364/378/364 
f 371/385/371 370/384/370 365/379/365 366/380/366 
f 367/381/367 372/386/372 371/385/371 366/380/366 
f 373/387/373 372/386/372 367/381/367 368/382/368 
f 369/388/369 349/363/349 348/362/348 
f 349/363/349 369/388/369 370/389/370 352/366/352 
f 370/389/370 371/390/371 353/367/353 352/366/352 
f 355/369/355 353/367/353 371/390/371 372/391/372 
f 358/372/358 355/369/355 372/391/372 373/392/373 
f 374/393/374 375/394/375 376/395/376 377/396/377 
f 378/397/378 379/398/379 376/395/376 375/394/375 
f 380/399/380 381/400/381 382/401/382 
f 374/393/374 378/402/378 375/394/375 
f 383/403/383 384/404/384 377/396/377 380/399/380 
f 385/405/385 384/404/384 383/403/383 386/406/386 
f 387/407/387 385/405/385 386/406/386 388/408/388 
f 388/408/388 389/409/389 390/410/390 387/407/387 
f 391/411/391 392/412/392 389/409/389 388/408/388 
f 388/408/388 386/406/386 393/413/393 391/411/391 
f 386/406/386 383/403/383 394/414/394 393/413/393 
f 380/399/380 382/401/382 394/414/394 383/403/383 
f 395/415/395 396/416/396 379/398/379 378/397/378 
f 395/415/395 397/417/397 398/418/398 396/416/396 
f 397/417/397 399/419/399 400/420/400 398/418/398 
f 400/420/400 399/419/399 401/421/401 402/422/402 
f 395/423/395 378/402/378 374/393/374 403/424/403 
f 403/424/403 404/425/404 397/426/397 395/423/395 
f 404/425/404 405/427/405 399/428/399 397/426/397 
f 399/428/399 405/427/405 406/429/406 401/430/401 
f 380/399/380 377/396/377 376/395/376 381/400/381 
f 377/396/377 384/404/384 403/424/403 374/393/374 
f 385/405/385 404/425/404 403/424/403 384/404/384 
f 405/427/405 404/425/404 385/405/385 387/407/387 
f 405/427/405 387/407/387 390/410/390 406/429/406 
f 379/398/379 382/401/382 381/400/381 376/395/376 
f 379/398/379 396/416/396 394/414/394 382/401/382 
f 396/416/396 398/418/398 393/413/393 394/414/394 
f 393/413/393 398/418/398 400/420/400 391/411/391 
f 392/412/392 391/411/391 400/420/400 402/422/402 
f 407/431/407 408/432/408 409/433/409 
f 409/433/409 408/432/408 410/434/410 411/435/411 
f 412/436/412 413/437/413 411/435/411 410/434/410 
f 412/436/412 414/438/414 415/439/415 413/437/413 
f 415/439/415 414/438/414 416/440/416 417/441/417 
f 407/431/407 409/433/409 418/442/418 
f 409/433/409 411/435/411 419/443/419 418/442/418 
f 420/444/420 419/443/419 411/435/411 413/437/413 
f 421/445/421 420/444/420 413/437/413 415/439/415 
f 415/439/415 417/441/417 422/446/422 421/445/421 
f 407/431/407 423/447/423 408/432/408 
f 410/434/410 408/432/408 423/447/423 424/448/424 
f 410/434/410 424/448/424 425/449/425 412/436/412 
f 412/436/412 425/449/425 426/450/426 414/438/414 
f 427/451/427 416/440/416 414/438/414 426/450/426 
f 407/431/407 428/452/428 423/447/423 
f 418/453/418 428/452/428 407/431/407 
f 429/454/429 424/448/424 423/447/423 428/452/428 
f 430/455/430 425/449/425 424/448/424 429/454/429 
f 426/450/426 425/449/425 430/455/430 431/456/431 
f 432/457/432 427/451/427 426/450/426 431/456/431 
f 429/454/429 428/452/428 418/453/418 419/458/419 
f 420/459/420 430/455/430 429/454/429 419/458/419 
f 421/460/421 431/456/431 430/455/430 420/459/420 
f 421/460/421 422/461/422 432/457/432 431/456/431 
f 433/462/433 434/463/434 435/464/435 436/465/436 
f 433/462/433 437/466/437 438/467/438 434/463/434 
f 434/463/434 439/468/439 435/464/435 
f 439/468/439 434/463/434 438/467/438 
f 436/465/436 437/469/437 433/462/433 
f 435/464/435 440/470/440 441/471/441 436/465/436 
f 442/472/442 443/473/443 441/471/441 440/470/440 
f 440/470/440 435/464/435 439/468/439 444/474/444 
f 442/472/442 440/470/440 444/474/444 445/475/445 
f 437/469/437 436/465/436 441/471/441 446/476/446 
f 443/473/443 447/477/447 446/476/446 441/471/441 
f 446/478/446 448/479/448 438/467/438 437/466/437 
f 448/479/448 446/478/446 447/480/447 449/481/449 
f 444/474/444 439/468/439 438/467/438 448/479/448 
f 444/474/444 448/479/448 449/481/449 445/475/445 
f 450/482/450 451/483/451 422/484/422 417/485/417 
f 452/486/452 432/487/432 422/484/422 451/483/451 
f 452/486/452 453/488/453 454/489/454 432/487/432 
f 453/488/453 455/490/455 456/491/456 454/489/454 
f 457/492/457 456/491/456 455/490/455 458/493/458 
f 457/492/457 458/493/458 459/494/459 460/495/460 
f 461/496/461 462/497/462 460/498/460 459/499/459 
f 463/500/463 462/497/462 461/496/461 464/501/464 
f 465/502/465 406/503/406 463/500/463 464/501/464 
f 406/503/406 465/502/465 466/504/466 401/505/401 
f 467/506/467 468/507/468 401/505/401 466/504/466 
f 467/506/467 469/508/469 470/509/470 468/507/468 
f 417/485/417 470/509/470 469/508/469 450/482/450 
f 402/510/402 401/505/401 468/507/468 
f 471/511/471 392/512/392 402/510/402 468/507/468 
f 470/509/470 472/513/472 471/511/471 468/507/468 
f 416/514/416 472/513/472 470/509/470 417/485/417 
f 454/489/454 473/515/473 427/516/427 432/487/432 
f 474/517/474 473/515/473 454/489/454 456/491/456 
f 474/517/474 456/491/456 457/492/457 443/518/443 
f 447/519/447 443/518/443 457/492/457 
f 460/498/460 462/497/462 475/520/475 476/521/476 
f 390/522/390 463/500/463 406/503/406 
f 390/522/390 389/523/389 477/524/477 463/500/463 
f 462/497/462 463/500/463 477/524/477 475/520/475 
f 476/525/476 449/526/449 447/519/447 
f 476/525/476 447/519/447 457/492/457 460/495/460 
f 449/526/449 476/525/476 478/527/478 445/528/445 
f 475/520/475 479/529/479 478/530/478 476/521/476 
f 475/520/475 477/524/477 480/531/480 479/529/479 
f 389/523/389 481/532/481 480/531/480 477/524/477 
f 481/532/481 389/523/389 392/512/392 
f 471/511/471 482/533/482 481/532/481 392/512/392 
f 472/513/472 483/534/483 482/533/482 471/511/471 
f 484/535/484 483/534/483 472/513/472 416/514/416 
f 427/516/427 485/536/485 484/535/484 416/514/416 
f 473/515/473 486/537/486 485/536/485 427/516/427 
f 486/537/486 473/515/473 474/517/474 487/538/487 
f 443/518/443 442/539/442 487/538/487 474/517/474 
f 442/539/442 445/528/445 488/540/488 
f 488/540/488 489/541/489 487/538/487 442/539/442 
f 490/542/490 488/540/488 445/528/445 478/527/478 
f 490/543/490 478/530/478 479/529/479 491/544/491 
f 491/544/491 479/529/479 480/531/480 492/545/492 
f 481/532/481 493/546/493 492/545/492 480/531/480 
f 482/533/482 494/547/494 493/546/493 481/532/481 
f 495/548/495 494/547/494 482/533/482 483/534/483 
f 495/548/495 483/534/483 484/535/484 496/549/496 
f 496/549/496 484/535/484 485/536/485 497/550/497 
f 497/550/497 485/536/485 486/537/486 498/551/498 
f 498/551/498 486/537/486 487/538/487 489/541/489 
f 499/552/499 500/553/500 488/540/488 490/542/490 
f 499/554/499 490/543/490 491/544/491 
f 499/554/499 491/544/491 492/545/492 501/555/501 
f 492/545/492 493/546/493 502/556/502 501/555/501 
f 493/546/493 494/547/494 503/557/503 502/556/502 
f 503/557/503 494/547/494 495/548/495 504/558/504 
f 505/559/505 504/558/504 495/548/495 496/549/496 
f 505/559/505 496/549/496 497/550/497 
f 497/550/497 498/551/498 506/560/506 505/559/505 
f 506/560/506 498/551/498 489/541/489 
f 489/541/489 488/540/488 500/553/500 506/560/506 
f 504/558/504 373/561/373 368/562/368 503/557/503 
f 504/558/504 505/559/505 358/563/358 373/561/373 
f 505/559/505 506/560/506 507/564/507 358/563/358 
f 500/553/500 508/565/508 507/564/507 506/560/506 
f 500/553/500 499/552/499 509/566/509 508/565/508 
f 510/567/510 509/568/509 499/554/499 501/555/501 
f 501/555/501 502/556/502 511/569/511 510/567/510 
f 511/569/511 502/556/502 503/557/503 368/562/368 
f 363/570/363 511/569/511 368/562/368 
f 357/571/357 358/563/358 507/564/507 
f 357/571/357 512/572/512 513/573/513 363/570/363 
f 513/573/513 514/574/514 511/569/511 363/570/363 
f 510/567/510 511/569/511 514/574/514 515/575/515 
f 509/568/509 510/567/510 515/575/515 516/576/516 
f 509/566/509 516/577/516 517/578/517 508/565/508 
f 507/564/507 508/565/508 517/578/517 340/579/340 
f 512/572/512 357/571/357 507/564/507 340/579/340 
f 336/580/336 512/572/512 340/579/340 
f 512/572/512 336/580/336 335/581/335 518/582/518 
f 512/572/512 518/582/518 519/583/519 513/573/513 
f 520/584/520 514/574/514 513/573/513 519/583/519 
f 515/575/515 514/574/514 520/584/520 265/585/265 
f 279/586/279 515/575/515 265/585/265 
f 275/587/275 515/575/515 279/586/279 
f 516/576/516 515/575/515 275/587/275 521/588/521 
f 517/578/517 516/577/516 521/589/521 522/590/522 
f 340/579/340 517/578/517 522/590/522 346/591/346 
f 522/590/522 523/592/523 343/593/343 346/591/346 
f 521/589/521 524/594/524 523/592/523 522/590/522 
f 521/588/521 275/587/275 525/595/525 524/596/524 
f 525/595/525 275/587/275 274/597/274 
f 269/598/269 526/599/526 525/595/525 274/597/274 
f 269/598/269 266/600/266 527/601/527 526/599/526 
f 266/600/266 265/585/265 520/584/520 527/601/527 
f 527/601/527 520/584/520 519/583/519 528/602/528 
f 528/602/528 519/583/519 518/582/518 529/603/529 
f 530/604/530 529/603/529 518/582/518 335/581/335 
f 523/592/523 530/604/530 335/581/335 343/593/343 
f 531/605/531 532/606/532 530/604/530 523/592/523 
f 533/607/533 531/605/531 523/592/523 524/594/524 
f 534/608/534 533/609/533 524/596/524 525/595/525 
f 525/595/525 526/599/526 535/610/535 534/608/534 
f 526/599/526 527/601/527 535/610/535 
f 527/601/527 528/602/528 536/611/536 535/610/535 
f 529/603/529 537/612/537 536/611/536 528/602/528 
f 537/612/537 529/603/529 530/604/530 532/606/532 
f 538/613/538 535/610/535 536/611/536 539/614/539 
f 540/615/540 539/614/539 536/611/536 537/612/537 
f 537/612/537 532/606/532 541/616/541 540/615/540 
f 531/605/531 542/617/542 541/616/541 532/606/532 
f 531/605/531 533/607/533 543/618/543 542/617/542 
f 543/619/543 533/609/533 534/608/534 544/620/544 
f 534/608/534 535/610/535 538/613/538 544/620/544 
f 545/621/545 546/622/546 547/623/547 548/624/548 
f 549/625/549 550/626/550 548/624/548 547/623/547 
f 545/621/545 551/627/551 552/628/552 553/629/553 
f 551/627/551 554/630/554 555/631/555 
f 555/631/555 556/632/556 557/633/557 558/634/558 
f 556/632/556 555/631/555 554/630/554 559/635/559 
f 560/636/560 561/637/561 562/638/562 559/635/559 
f 563/639/563 559/635/559 562/638/562 564/640/564 
f 564/640/564 565/641/565 563/639/563 
f 560/636/560 559/635/559 554/630/554 566/642/566 
f 545/621/545 548/624/548 554/630/554 551/627/551 
f 554/630/554 548/624/548 550/626/550 566/642/566 
f 567/643/567 568/644/568 569/645/569 
f 567/643/567 569/645/569 549/625/549 570/646/570 
f 571/647/571 572/648/572 568/644/568 
f 567/643/567 570/646/570 573/649/573 
f 574/650/574 567/643/567 573/649/573 575/651/575 
f 574/650/574 571/647/571 568/644/568 567/643/567 
f 576/652/576 568/644/568 572/648/572 577/653/577 
f 578/654/578 577/653/577 572/648/572 579/655/579 
f 580/656/580 581/657/581 582/658/582 583/659/583 
f 580/656/580 584/660/584 576/652/576 585/661/585 
f 580/656/580 583/659/583 586/662/586 584/660/584 
f 580/656/580 585/661/585 587/663/587 581/657/581 
f 582/658/582 588/664/588 589/665/589 583/659/583 
f 590/666/590 591/667/591 589/665/589 588/664/588 
f 586/662/586 583/659/583 589/665/589 592/668/592 
f 591/667/591 593/669/593 592/668/592 589/665/589 
f 594/670/594 595/671/595 596/672/596 597/673/597 
f 597/673/597 596/672/596 598/674/598 599/675/599 
f 600/676/600 601/677/601 594/670/594 590/666/590 
f 597/673/597 591/667/591 590/666/590 594/670/594 
f 595/671/595 594/670/594 601/677/601 602/678/602 
f 597/673/597 599/675/599 593/669/593 591/667/591 
f 603/679/603 604/680/604 605/681/605 596/672/596 
f 596/672/596 595/671/595 603/679/603 
f 606/682/606 607/683/607 608/684/608 
f 606/682/606 608/684/608 609/685/609 605/681/605 
f 610/686/610 611/687/611 612/688/612 613/689/613 
f 614/690/614 598/674/598 596/672/596 605/681/605 
f 605/681/605 609/685/609 615/691/615 614/690/614 
f 616/692/616 617/693/617 611/687/611 610/686/610 
f 618/694/618 613/689/613 612/688/612 619/695/619 
f 611/687/611 617/693/617 615/691/615 609/685/609 
f 609/685/609 608/684/608 612/688/612 611/687/611 
f 620/696/620 621/697/621 612/688/612 
f 613/689/613 622/698/622 623/699/623 610/686/610 
f 622/698/622 624/700/624 625/701/625 623/699/623 
f 626/702/626 623/699/623 625/701/625 627/703/627 
f 623/699/623 626/702/626 616/692/616 610/686/610 
f 628/704/628 629/705/629 625/701/625 630/706/630 
f 627/703/627 625/701/625 629/705/629 631/707/631 
f 632/708/632 629/705/629 628/704/628 633/709/633 
f 629/705/629 632/708/632 634/710/634 631/707/631 
f 632/708/632 635/711/635 636/712/636 561/637/561 
f 635/711/635 637/713/637 638/714/638 636/712/636 
f 628/704/628 639/715/639 640/716/640 633/709/633 
f 630/706/630 641/717/641 642/718/642 628/704/628 
f 643/719/643 634/710/634 632/708/632 561/637/561 
f 644/720/644 569/645/569 568/644/568 576/652/576 
f 644/720/644 576/652/576 584/660/584 
f 644/720/644 584/660/584 586/662/586 645/721/645 
f 645/721/645 586/662/586 592/668/592 
f 593/669/593 646/722/646 645/721/645 592/668/592 
f 593/669/593 599/675/599 647/723/647 646/722/646 
f 647/723/647 599/675/599 598/674/598 
f 614/690/614 648/724/648 647/723/647 598/674/598 
f 648/724/648 614/690/614 615/691/615 649/725/649 
f 649/725/649 615/691/615 617/693/617 
f 643/719/643 561/637/561 560/636/560 650/726/650 
f 650/726/650 560/636/560 566/642/566 651/727/651 
f 566/642/566 550/626/550 652/728/652 651/727/651 
f 550/626/550 549/625/549 653/729/653 652/728/652 
f 653/729/653 549/625/549 569/645/569 
f 654/730/654 653/729/653 569/645/569 644/720/644 
f 654/730/654 644/720/644 645/721/645 
f 655/731/655 654/730/654 645/721/645 656/732/656 
f 645/721/645 646/722/646 657/733/657 656/732/656 
f 658/734/658 657/733/657 659/735/659 660/736/660 
f 648/724/648 661/737/661 659/735/659 647/723/647 
f 653/729/653 654/730/654 655/731/655 662/738/662 
f 652/728/652 653/729/653 662/738/662 663/739/663 
f 652/728/652 663/739/663 664/740/664 651/727/651 
f 665/741/665 650/726/650 651/727/651 664/740/664 
f 665/741/665 666/742/666 643/719/643 650/726/650 
f 643/719/643 666/742/666 667/743/667 634/710/634 
f 667/743/667 668/744/668 631/707/631 634/710/634 
f 631/707/631 668/744/668 669/745/669 627/703/627 
f 627/703/627 669/745/669 670/746/670 626/702/626 
f 616/692/616 626/702/626 670/746/670 671/747/671 
f 672/748/672 617/693/617 616/692/616 671/747/671 
f 672/748/672 673/749/673 649/725/649 617/693/617 
f 649/725/649 673/749/673 661/737/661 648/724/648 
f 647/723/647 659/735/659 657/733/657 646/722/646 
f 661/737/661 674/750/674 660/736/660 659/735/659 
f 673/749/673 675/751/675 674/750/674 661/737/661 
f 675/751/675 673/749/673 672/748/672 676/752/676 
f 676/752/676 672/748/672 671/747/671 677/753/677 
f 678/754/678 677/753/677 671/747/671 670/746/670 
f 679/755/679 678/754/678 670/746/670 669/745/669 
f 668/744/668 680/756/680 679/755/679 669/745/669 
f 681/757/681 680/756/680 668/744/668 667/743/667 
f 682/758/682 681/757/681 667/743/667 666/742/666 
f 665/741/665 683/759/683 682/758/682 666/742/666 
f 684/760/684 683/759/683 665/741/665 664/740/664 
f 664/740/664 663/739/663 685/761/685 684/760/684 
f 685/761/685 663/739/663 662/738/662 686/762/686 
f 655/731/655 687/763/687 686/762/686 662/738/662 
f 687/763/687 655/731/655 656/732/656 688/764/688 
f 658/734/658 688/764/688 656/732/656 657/733/657 
f 608/684/608 689/765/689 620/696/620 612/688/612 
f 612/688/612 621/697/621 619/695/619 
f 690/766/690 691/767/691 692/768/692 
f 693/769/693 694/770/694 690/766/690 692/768/692 
f 694/770/694 693/769/693 695/771/695 
f 696/772/696 697/773/697 695/771/695 693/769/693 
f 698/774/698 697/773/697 696/772/696 699/775/699 
f 697/773/697 700/776/700 701/777/701 695/771/695 
f 698/774/698 702/778/702 703/779/703 
f 704/780/704 705/781/705 700/776/700 
f 706/782/706 707/783/707 708/784/708 709/785/709 
f 700/776/700 710/786/710 701/777/701 
f 702/778/702 698/774/698 711/787/711 709/785/709 
f 708/784/708 702/778/702 709/785/709 
f 704/780/704 700/776/700 703/779/703 
f 700/776/700 697/773/697 698/774/698 703/779/703 
f 699/775/699 712/788/712 711/787/711 698/774/698 
f 713/789/713 709/785/709 711/787/711 714/790/714 
f 711/787/711 712/788/712 715/791/715 714/790/714 
f 714/790/714 715/791/715 716/792/716 717/793/717 
f 718/794/718 713/789/713 714/790/714 717/793/717 
f 719/795/719 713/789/713 718/794/718 720/796/720 
f 721/797/721 722/798/722 718/794/718 723/799/723 
f 723/799/723 724/800/724 721/797/721 
f 723/799/723 718/794/718 717/793/717 725/801/725 
f 726/802/726 727/803/727 724/800/724 723/799/723 
f 728/804/728 726/802/726 729/805/729 
f 729/805/729 730/806/730 731/807/731 728/804/728 
f 732/808/732 733/809/733 734/810/734 735/811/735 
f 729/805/729 736/812/736 737/813/737 730/806/730 
f 738/814/738 739/815/739 740/816/740 732/808/732 
f 739/815/739 738/814/738 741/817/741 742/818/742 
f 737/813/737 736/812/736 739/815/739 742/818/742 
f 739/815/739 736/812/736 740/816/740 
f 734/810/734 743/819/743 744/820/744 735/811/735 
f 745/821/745 746/822/746 744/820/744 743/819/743 
f 745/821/745 747/823/747 746/822/746 
f 734/810/734 748/824/748 749/825/749 
f 748/824/748 734/810/734 733/809/733 750/826/750 
f 733/809/733 751/827/751 750/826/750 
f 752/828/752 750/826/750 751/827/751 
f 753/829/753 754/830/754 752/828/752 751/827/751 
f 755/831/755 754/830/754 753/829/753 
f 756/832/756 755/831/755 753/829/753 757/833/757 
f 758/834/758 759/835/759 760/836/760 761/837/761 
f 756/832/756 757/833/757 762/838/762 763/839/763 
f 762/838/762 761/837/761 760/836/760 763/839/763 
f 758/834/758 764/840/764 765/841/765 
f 766/842/766 767/843/767 765/841/765 768/844/768 
f 769/845/769 767/843/767 766/842/766 
f 770/846/770 769/845/769 766/842/766 
f 766/842/766 768/844/768 771/847/771 772/848/772 
f 772/848/772 773/849/773 770/846/770 766/842/766 
f 768/844/768 765/841/765 764/840/764 774/850/774 
f 771/847/771 768/844/768 774/850/774 692/768/692 
f 764/840/764 758/834/758 761/837/761 775/851/775 
f 762/838/762 776/852/776 775/851/775 761/837/761 
f 776/852/776 762/838/762 757/833/757 
f 753/829/753 777/853/777 776/852/776 757/833/757 
f 751/827/751 778/854/778 777/853/777 753/829/753 
f 778/854/778 751/827/751 733/809/733 779/855/779 
f 733/809/733 732/808/732 780/856/780 779/855/779 
f 780/856/780 732/808/732 740/816/740 781/857/781 
f 781/857/781 740/816/740 736/812/736 782/858/782 
f 782/858/782 736/812/736 783/859/783 784/860/784 
f 783/859/783 725/801/725 784/860/784 
f 716/792/716 784/860/784 725/801/725 717/793/717 
f 729/805/729 726/802/726 783/859/783 736/812/736 
f 780/856/780 785/861/785 779/855/779 
f 786/862/786 778/854/778 779/855/779 785/861/785 
f 778/854/778 786/862/786 787/863/787 777/853/777 
f 787/863/787 788/864/788 776/852/776 777/853/777 
f 788/864/788 789/865/789 775/851/775 776/852/776 
f 764/840/764 775/851/775 789/865/789 
f 789/865/789 790/866/790 774/850/774 764/840/764 
f 774/850/774 790/866/790 791/867/791 692/768/692 
f 791/867/791 792/868/792 693/769/693 692/768/692 
f 792/868/792 793/869/793 696/772/696 693/769/693 
f 793/869/793 699/775/699 696/772/696 
f 793/869/793 794/870/794 712/788/712 699/775/699 
f 794/870/794 715/791/715 712/788/712 
f 795/871/795 716/792/716 715/791/715 794/870/794 
f 716/792/716 795/871/795 796/872/796 784/860/784 
f 796/872/796 782/858/782 784/860/784 
f 797/873/797 781/857/781 782/858/782 796/872/796 
f 785/861/785 780/856/780 781/857/781 797/873/797 
f 723/799/723 725/801/725 783/859/783 726/802/726 
# 577 polygons - 121 triangles

